<svg version="1.1" id="Layer_1" xmlns="http://www.w3.org/2000/svg" x="0" y="0" viewBox="0 0 814.1 348.7" xml:space="preserve">
  <path id="Path_448" class="st0" d="M143.9 72.1l-26.6.1v-.1h-9.6v.1l-26.6.1v-.1h-9.6l.4 116.1h9.6l-.1-28.3 26.6-.1.1 28.3h9.6l-.1-28.3 26.6-.1.1 28.3h9.6L153.5 72l-9.6.1zm-33.3 85.2l-.2-44.6h4.4l.2 44.6h-4.4zm4.1-82.5l.1 19.2h-4.4l-.1-19.2h4.4zm13.6 35.2V96.5h4.8V110h-4.8zm-2.6 0h-8.3V96.5h8.3V110zm-10.9.1h-4.4V96.6h4.4v13.5zM96.7 96.7v13.5H92V96.7h4.7zm2.6-.1h8.5v13.5h-8.5V96.6zm8.5-2.6l-26.6.1-.1-19.2 26.6-.1.1 19.2zm-26.7 2.7h8.2v13.5h-8.2V96.7zm26.7 16l.2 44.6-26.6.1-.2-44.6 26.6-.1zm9.6 0l26.6-.1.2 44.6-26.6.1-.2-44.6zm26.7-2.7h-8.3V96.5h8.3V110zm-26.7-16l-.1-19.2 26.6-.1.1 19.2-26.6.1zm-38.6 91.7h-4.4l-.3-110.9h1.6v.1h2.8l.3 82.5h-1.9v2.6h1.9v25.7zm36.3-.2h-4.4l-.1-25.6h4.4l.1 25.6zm36.2-.1h-4.4l-.1-25.6h2.2v-2.6h-2.2l-.3-82.5h3.3v-.1h1.1l.4 110.8z"/>
  <path id="Path_449" class="st0" d="M814 266h-8.8l-.4-108.5h6.2l-.1-31.3-19.5-72.1-238.2.9.5-1.3-55.2-27.4h2.4V15.6h-1.1L452.1 0l-49 15.9H402v10.7h2.4l-55.1 27.8.5 1.3-188 .7v-3.8h-1.1L113.3 37l-49 15.9h-1.1V61h-6v6.2L6.5 92.8l2.2 5.1.6 170.9H.1v14h3.1l.1 36.9 356-1.2v6.2l-10.3 8.6.1 15.4L556 348l-.1-15.5-12.7-8.7v-6l269-.9-.1-36.9h1.9v-14zm-2.5 11.3l-284.1 1v-8.7l284.1-1v8.7zm-449.6 36.8l178.7-.6v9.6l-178.6.7-.1-9.7zm2.3-2.6l6.1-5.2 160.3-.6 7.3 5.2-173.7.6zM30.9 282.7v6.6l-16 .1v-6.6l16-.1zm9.6 9.1v6l-16.9.1v-6l16.9-.1zm20.4 0v6l-17.7.1v-6l17.7-.1zm18.3-.1v6l-15.7.1v-6l15.7-.1zm19.5-.1v6l-16.9.1v-6l16.9-.1zm20.4 0v6l-17.7.1v-6l17.7-.1zm18.3-.1v6l-15.7.1v-6l15.7-.1zm19-.1v6l-16.4.1v-6l16.4-.1zm20.3 0v6l-17.7.1v-6l17.7-.1zm18.4-.1v6l-15.7.1v-6l15.7-.1zm19.6-.1v6l-17 .1v-6l17-.1zm20.4 0v6l-17.7.1v-6l17.7-.1zm18.3-.1v6l-15.7.1v-6l15.7-.1zm18.9-.1v6l-16.3.1v-6l16.3-.1zm20.4 0v6H275v-6h17.7zm18.3-.1v6l-15.7.1v-6l15.7-.1zm18.9-.1v6l-16.2.1v-6l16.2-.1zm-238.1 9.8l16.3-.1v6.6l-16.3.1v-6.6zm19 0l17.7-.1v6.6l-17.7.1v-6.6zm20.3-.1l15.7-.1v6.6l-15.7.1v-6.6zm18.4-.1l16.4-.1v6.6l-16.4.1v-6.6zm19 0l17.7-.1v6.6l-17.7.1v-6.6zm20.3-.1l15.7-.1v6.6l-15.7.1v-6.6zm18.4-.1l17-.1v6.6l-17 .1v-6.6zm19.6 0l17.7-.1v6.6l-17.7.1v-6.6zm20.3-.1l15.7-.1v6.6l-15.7.1v-6.6zm18.4-.1l16.3-.1v6.6l-16.3.1V300zm18.9 0l17.7-.1v6.6l-17.7.1V300zm-195.2.7v6.6l-15.7.1v-6.6l15.7-.1zm215.6 5.8v-6.6l15.7-.1v6.6l-15.7.1zm-233.9-5.8v6.6l-17.7.1v-6.6l17.7-.1zm268.7-3.9h-7.1v-6h7.1v6zm-289.1 4v6.6l-16.9.1v-6.6l16.9-.1zm-26.9 9.6l16.9-.1v6.4l-16.9.1v-6.4zm-2.6 6.3l-15.1.1v-6.4l15.1-.1v6.4zm22.2-6.4l17.7-.1v6.4l-17.7.1v-6.4zm20.3-.1l15.7-.1v6.4l-15.7.1v-6.4zm18.4 0l16.9-.1v6.4l-16.9.1v-6.4zm19.5-.1l17.7-.1v6.4l-17.7.1v-6.4zm20.3-.1l15.7-.1v6.4l-15.7.1V310zm18.4-.1l16.4-.1v6.4l-16.4.1v-6.4zm19 0l17.7-.1v6.4l-17.7.1v-6.4zm20.3-.1l15.7-.1v6.4l-15.7.1v-6.4zm18.4-.1l17-.1v6.4l-17 .1v-6.4zm19.6 0l17.7-.1v6.4l-17.7.1v-6.4zm20.4-.1l15.7-.1v6.4l-15.7.1v-6.4zm18.3-.1l16.3-.1v6.4l-16.3.1v-6.4zm18.9 0l17.7-.1v6.4l-17.7.1v-6.4zm20.4-.1l15.7-.1v6.4l-15.7.1v-6.4zm18.3-.1l16.2-.1v6.4l-16.2.1v-6.4zm18.8 0h7.1v6.4h-7.1v-6.4zm-9.4-2.8v-6.6l16.7-.1v6.6l-16.7.1zm16.5-18.3l-16.5.1v-6.6l16.5-.1v6.6zm-19.2 0l-15.7.1v-6.6l15.7-.1v6.6zm-18.3.1l-17.7.1v-6.6l17.7-.1v6.6zm-20.3.1l-16.3.1v-6.6l16.3-.1v6.6zm-19 0l-15.7.1v-6.6l15.7-.1v6.6zm-18.3.1l-17.7.1V282l17.7-.1v6.6zm-20.3.1l-17 .1v-6.6l17-.1v6.6zm-19.7 0l-15.7.1v-6.6l15.7-.1v6.6zm-18.3.1l-17.7.1v-6.6l17.7-.1v6.6zm-20.4.1l-16.4.1v-6.6l16.4-.1v6.6zm-19 0l-15.7.1v-6.6l15.7-.1v6.6zm-18.3.1l-17.7.1v-6.6l17.7-.1v6.6zm-20.4.1H91.8v-6.6l16.3-.1v6.7zm-18.9 0l-15.7.1v-6.6l15.7-.1v6.6zm-18.4.1l-17.7.1v-6.6l17.7-.1v6.6zm-20.3.1l-17 .1v-6.6l16.9-.1.1 6.6zM21 291.9v6l-15.1.1v-6l15.1-.1zm10 9v6.6l-16 .1V301l16-.1zm311.2-12.7v-6.6h12.3v6.9h-12.3v-.3zm-152.4-98.7l.3 78.6-21.6.1-.2-71.6v-7l46.1-.2.3 78.6-21.9.1-.3-78.6h-2.7zm214.9-171l93.6-.3v5.5l-93.6.3v-5.5zM549 135.4l-54.3.2-.1-28.3 54.3-.2.1 28.3zm13.4 22.9h4.5l.1 28.2h-4.5l-.1-28.2zm7.2 30.8l-.1-30.8 18.7-.1.1 30.8h9.7l-.1-30.8h9.2l.1 35.1-55.4.2-.1-35.1h8.1l.1 30.8 9.7-.1zm21.2-30.9h4.5l.1 28.2h-4.5l-.1-28.2zm39.6-.1h4.4l.1 28.2h-4.5v-28.2zm7.2 30.8l-.1-30.8 18.7-.1.1 30.8h9.7l-.1-30.8h7.6l.1 35.1-53.3.2-.1-35.1h7.6l.1 30.8 9.7-.1zm21.2-30.9h4.5l.1 28.2h-4.5l-.1-28.2zm37-.1h4.5l.1 28.2h-4.5l-.1-28.2zm7.2 30.8l-.1-30.8 18.7-.1.1 30.8h9.7l-.1-30.8h6.6l.1 35.1-51.3.2-.1-35.1h6.6l.1 30.8 9.7-.1zm21.2-30.9h4.5l.1 28.2h-4.5l-.1-28.2zm36-.2h4.5l.1 28.2h-4.5l-.1-28.2zm7.2 30.8l-.1-30.8 18.7-.1.1 30.8h9.7l-.1-30.8h6.6l.1 35.1-51.3.2-.1-35.1h6.6l.1 30.8 9.7-.1zm21.2-30.9h4.5l.1 28.2h-4.5l-.1-28.2zm-10.3 108.6l-.2-70.8 24.3-.1.2 70.8-24.3.1zm-718-71.8l-.3-90.7-.1-28.4 10.7-5.5 83.8-.3 10.8 5.4.1 28.4.3 90.8-105.3.3zm-49-93.4l14.8-.1v-8.5l3.7-1.9v13.4l-18.5.2v-3.1zm3.2-2.6l9-4.6v4.6h-9zm42.8-18.4L32.4 92.5v-3.3l24.9-12.7v3.4zm-46 26.7l21.1-.1V95.4L51.1 86l.4 102.3-39.9.1-.3-81.8zm42.4-22l3.6-1.8.4 105.5h-3.6l-.4-103.7zM214 103.1l-18.3.1V90l3.5 1.8v8.5l14.8-.1v2.9zm-46.2-20.7l3.4 1.7.4 102.8h-3.4l-.4-104.5zM193 92l-25.1-12.5v-3.4L193 88.7V92zm8.7 1.1l9 4.5h-9v-4.5zm150.7 115h-4.6v-8.9h4.6v8.9zm0 10.3l-15.2.1v-7.7l15.2-.1v7.7zm.1 11.1h-4.6V221h4.6v8.5zm0 9.2l-15.2.1v-6.6l15.2-.1v6.6zm-53.9.2v-6.6l17.7-.1v6.6l-17.7.1zm-19.7.1v-6.6l17-.1v6.6l-17 .1zm-19.2.1v-6.6l16.6-.1v6.6l-16.6.1zM247 221.4v8.5l-17 .1v-8.5l17-.1zm71.9-2.9v-7.7l15.7-.1v7.7l-15.7.1zm8.9 11.1v-8.5l17.4-.1v8.5l-17.4.1zm-18.3 0v-8.5l15.7-.1v8.5l-15.7.1zm-20.4.1v-8.5l17.7-.1v8.5l-17.7.1zm-19.6.1v-8.5l17-.1v8.5l-17 .1zm46.7-11.3l-17.7.1v-7.7l17.7-.1v7.7zm-20.3.1l-17 .1V211l17-.1v7.7zm-19.6.1l-16.6.1v-7.7l16.6-.1v7.7zm-9.5 2.6v8.5l-17.3.1v-8.5l17.3-.1zm78.4-13.2l-17.4.1v-8.9l17.4-.1v8.9zm-20.1.1l-15.7.1v-8.9l15.7-.1v8.9zm-18.3 0l-17.7.1v-8.9l17.7-.1v8.9zm-20.4.1l-17 .1v-8.9l17-.1v8.9zM257 211v7.7l-17 .1v-7.7l17-.1zm61.9 27.9v-6.6l15.7-.1v6.6l-15.7.1zm-52.1-39.4v8.9l-16.6.1v-8.9l16.6-.1zm-19.3 9l-18.2.1v-8.9l18.2-.1v8.9zm9.6 23.9v6.6l-17.7.1v-6.6l17.7-.1zm95.2-35.8l-15.2.1v-7.6l15.2-.1v7.6zm-17.8 0l-15.7.1v-7.6l15.7-.1v7.6zm-18.3.1l-17.7.1v-7.6l17.7-.1v7.6zm-20.4.1l-17 .1v-7.6l17-.1v7.6zm-19.6.1l-16.6.1v-7.6l16.6-.1v7.6zm-19.3 0l-16.6.1v-7.6l16.6-.1v7.6zm-40 2.8h9.7v8.9h-9.7v-8.9zm.1 11.5l20.3-.1v7.7l-20.3.1v-7.7zm0 10.3h10.3v8.5H217v-8.5zm0 11.1l19.7-.1v6.6l-19.7.1v-6.6zm.1 9.2l15.2-.1v11.8l-15.1.1-.1-11.8zm17.8 0l15.1-.1v11.8l-15.1.1v-11.8zm17.6-.1h13.6v11.8h-13.6v-11.8zm16.3 0h13.9v11.8h-13.9v-11.8zm16.5-.1l16-.1v11.8l-16 .1v-11.8zm18.6-.1l15-.1v11.8l-15 .1v-11.8zm17.6 0h13.7v11.8h-13.7v-11.8zm16.4-.1l14.6-.1v11.8l-14.6.1v-11.8zm-100.2-52v7.6l-20.7.1v-7.6l20.7-.1zm117.1-45.2l54.3-.2v5.1l-30.5.1.1 21.2h-5.6l.1 17 5.6 3.1v13l-5.6.4.1 19.4h5.6V236h-5.6l.1 23.7-18.3.1-.3-115.6zm-.2-41.9l54.3-.2v2.9l-54.3.2v-2.9zm-.1-32.8l54.3-.2v2.9l-54.3.2v-2.9zm7.8-12.8V61h-7.9v-.4l7.9-3.9zm-7.8 7H365v-8.3l3.2-1.7v13.1h-13.7v-3.1zm54.2-30.6v3.5l-37.9 19.1v-3.3l37.9-19.3zm132.1 23l7.9 3.9v.4h-7.9v-4.3zm7.9 6.9v3.2H535V53.1l3.3 1.6V63h10.4zm-20.2 195.7l-25.8.1-.1-20.6 25.8-.1.1 20.6zm-25.9-23.1v-12.7l21.8-.1v12.7l-21.8.1zm0-15.3V214l21.7-8.4 4.1.3v14.3l-25.8.1zm21.3-17.4l-21.3 8.3v-.1c0-2.5-.3-5-.9-7.4l22.6-13V203l-.4-.1zm-122.2 8.7l-20.3-7.7v-11.8l21.2 12c-.6 2.4-.8 4.9-.8 7.4l-.1.1zm.2 47.5l-25.8.1-.1-20.6 25.8-.1.1 20.6zM381.5 236v-12.7l20.3-.1v12.7l-20.3.1zm20.2-15.4l-25.8.1-.1-14.3 4.1-.3 21.8 8.3v6.2zm92.2-26.6l-.2.2 4.3 7.5-22.1.1-.1-19.2c6.7 2.2 13.5 5.8 18.1 11.4zm-83.7.3c4.6-5.6 11.3-9.2 18-11.5l.1 19.1-22.1.1 4.2-7.5-.2-.2zm20.7-12.3c7-2 14.2-3.2 21.4-3.4 7.1.2 14.1 1.2 20.9 3.2l.1 20-42.3.1-.1-19.9zm34.3-4.8l2.9-25.6h12.3l-6.9 27.5c-2.7-.8-5.5-1.5-8.3-1.9zm-2.6-.4c-3.4-.5-6.9-.8-10.3-.8-3.6.1-7.3.4-10.9 1l-3.1-25.2 27.1-.1-2.8 25.1zm-26.9-25.1l3.1 25.7c-2.8.5-5.6 1.2-8.4 2l-7.1-27.6 12.4-.1zm-16.9-2.6V140l66.4-.2v9.1l-66.4.2zm-.4-107.2h8.4l.1 22.7h-8.4l-.1-22.7zm66.4 22.5h-8.3l-.1-22.7h8.3l.1 22.7zm-10.9.1h-6.6l-.1-22.7h6.6l.1 22.7zm-9.2 0h-8.3l-.1-22.7h8.3l.1 22.7zm-10.9 0h-4.4l-.1-22.7h4.4l.1 22.7zm-7 .1h-8.4l-.1-22.7h8.4l.1 22.7zm-11 0h-6.4l-.1-22.7h6.4l.1 22.7zm49 2.4v3.2l-66.4.2v-3.2l66.4-.2zm.3 70.1h-12.9l-.2-64.2h12.9l.2 64.2zM446.8 73l.2 64.3h-12.9l-.1-64.2 12.8-.1zm2.7 0h4.4l.2 64.3h-4.4l-.2-64.3zm6.9 0h12.9l.2 64.3h-12.9l-.2-64.3zm-37.9.1h12.9l.2 64.3h-12.9l-.2-64.3zm73.3-6.5l.3 81.4h-4.3l-.4-113.8h4.3l.1 32.4zm-7-27.5l-66.4.2v-4.9l66.4-.2v4.9zm-69 .2l.4 108.9h-4.4l-.4-113.8h4.4v4.9zm-45 19.3l37.9-19.1.1 27.2-37.9.1-.1-8.2zm49.9 93.1l7.3 28.4c-.3.1-.5.2-.8.3-2.2.8-4.4 1.7-6.5 2.7l-14.9-31.3 14.9-.1zm-17.7.1l15.4 32.5c-1.3.7-2.5 1.5-3.7 2.3l-31.8-34.7 20.1-.1zm-21.8 2.1l31.4 34.3c-1.7 1.4-3.2 2.9-4.5 4.5l-26.8-20.5-.1-18.3zm25.3 40.9c-1.4 2.1-2.5 4.3-3.3 6.6l-27.5-15.5v-12.8h2.3l28.5 21.7zm31.1 14.3l-4.8-4.6 38.6-.1-4.8 4.7h-29zm63.3-8c-.8-2.3-1.9-4.6-3.3-6.6l28.3-21.9h2.3v12.8l-27.3 15.7zm-4.8-8.7c-1.4-1.7-2.9-3.2-4.6-4.5l32.6-36.1.1 18.8-28.1 21.8zm-6.7-6.2c-1.2-.8-2.4-1.6-3.7-2.3l15.2-32.5 20.1-.1-31.6 34.9zm-6-3.5c-2-1-4.1-1.8-6.2-2.6-.3-.1-.7-.2-1-.3l7.1-28.3 14.8-.1-14.7 31.3zm10.9-143.5l38 18.9v8.2l-37.9.1-.1-27.2zm.4 29.8l54-.2v2.9l-54 .2V69zm37.6-13.9l-38-18.9v-3.5l38 19v3.4zM409 107.6l.1 28.3-54.3.2-.1-28.3 54.3-.2zm-54.2 31.1l54.3-.2v2.9l-54.3.2v-2.9zm49.7 123.1l-.2-50.3c0-2.3.2-4.6.8-6.8l23.2-.1.2 70.5-24 .1v-13.4zm26.4-55.5l4.9 4.7.2 64h-4.9l-.2-68.7zm7.5 5.5l27.5-.1.2 63.2-27.5.1-.2-63.2zm30.1-.9l4.7-4.6.2 68.6h-4.8l-.1-64zm7.3-6.5l23.3-.1c.5 2.2.8 4.5.8 6.8l.2 63.7-24.1.1-.2-70.5zm26.9 57.5l21.8-.1v12.9l-21.8.1v-12.9zm24.4-.1l22.2-.1v5.1l-22.2.1v-5.1zm24.7-65.7l26.7-.1.2 70.8-26.7.1-.2-70.8zm29.3-.1l26-.1.2 70.8-26 .1-.2-70.8zm28.7-.1h7.9l.2 70.8H610l-.2-70.8zm10.5 0l24.3-.1.2 70.8-24.3.1-.2-70.8zm26.9-.1l26.4-.1.2 70.8-26.4.1-.2-70.8zm29-.1h7.9l.2 70.8h-7.9l-.2-70.8zm10.5-.1l24.3-.1.2 70.8-24.3.1-.2-70.8zm27-.1l24.3-.1.2 70.8-24.3.1-.2-70.8zm26.9-.1h7.9l.2 70.8h-7.9l-.2-70.8zm10.5 0l24.3-.1.2 70.8-24.3.1-.2-70.8zm-2.6-2.6h-7.9l-.1-35.1h7.9l.1 35.1zm-64.4.2h-7.9l-.1-35.1h7.9l.1 35.1zm-66.4.2h-7.9l-.1-35.1h7.9l.1 35.1zm-68.3 65.9l-18.3.1-.1-23.7h-4.1v-12.7h4.1l-.1-19.4-4.1-.3v-13.9l4-2.3-.1-17h-4.1l-.1-21.2-32 .1v-5.1l54.3-.2.6 115.6zm-.4-118.2l-54 .2v-2.9l54-.2v2.9zm-.2-36.4l-54 .2v-2.9l54-.2v2.9zm-54.2-5.3l-.1-24.7 54.3-.2.1 24.7-54.3.2zm-2.9-67.6l-80.4.3v-5.3l80.4-.3v5.3zm-82.9 43.2l.1 24.7-54.3.2-.1-24.7 54.3-.2zm-127.3 88h4.4v11.5h-4.4v-11.5zm4.4-2.6h-4.4l-.2-66.4h4.4l.2 66.4zm-33.8-57.9h4.9v13.5h-4.9v-13.5zm26.6 13.4h-4.3v-13.5h4.3v13.5zm-6.8.1h-4.8v-13.5h4.8v13.5zm-7.5 0h-4.8v-13.5h4.8v13.5zm0 2.6l.1 41.9h-12.3l-.1-41.9h12.3zm2.6 0h11.7l.1 41.9h-11.7l-.1-41.9zm11.7-18.8l-26.6.1v-5.8l26.6-.1v5.8zm-29.3.1l.2 60.6h-4.4l-.2-66.4h4.4v5.8zm-4.1 63.2h4.4v11.5h-4.4v-11.5zm69.8-2.8l-26.6.1-.2-66.4 26.6-.1.2 66.4zm2.4-66.4h4.4l.3 80.5h-4.4l-.3-80.5zm-99.6.3l24.5-.1.3 83.2h9.6v-14.2l26.6-.1V177h9.6v-14.2l26.6-.1v14.2h9.6l-.3-83.2 27.5-.1.3 92.8-135.4.5-.3-89.7 1.4-3.2zm-43.6 93l-.4-101.5L193 95v10.9l21-.1.3 81.1-40 .1zm39.8-90.7l-46.3-23.2v-3.4l47.5 23.6-1.2 3zm-48.9-30.8v6.3l-10.4-5.2v-3.4h10.4v2.3zm-13 1.3l-80.4.2v-3.5l80.4-.3v3.6zM35.9 191l21.7-.1v6.1l.2 71.6-21.7.1-.2-77.7zm24.4 6l33.4-.1.2 71.6-33.4.1-.2-71.6zm36.1-.2l33.2-.1.2 71.6-33.2.1-.2-71.6zm35.8-.1l33.4-.1.2 71.6-33.4.1-.2-71.6zm84.9 59.5l15.2-.1v11.8l-15.1.1-.1-11.8zm17.8 0l15.1-.1v11.8l-15.1.1v-11.8zm17.7-.1h13.6v11.8h-13.6v-11.8zm16.2 0h13.9v11.8h-13.9v-11.8zm16.5-.1l16-.1v11.8l-16 .1V256zm18.7-.1l15-.1v11.8l-15 .1v-11.8zm17.6 0h13.7v11.8h-13.7v-11.8zm16.3-.1l14.6-.1v11.8l-14.6.1v-11.8zm17.4 6.6l23.7-.1v5.1l-23.7.1v-5.1zm26.3-.1l20.3-.1v12.9l-20.3.1v-12.9zm.1 19.1v-3.6l143.1-.5v3.6h5.1v6.9h-8.5v.1l-.1-.1-142.6.5h-8.2v-6.9h11.2zm428 23.4l-17 .1v-6.4l17-.1v6.4zm-248.5-14.5h7.1v6.4h-7.1v-6.4zm25.9-.1v6.4l-16.2.1v-6.4l16.2-.1zm18.4-.1v6.4l-15.7.1v-6.4l15.7-.1zm39.2-.1v6.4l-16.3.1v-6.4l16.3-.1zm18.4-.1v6.4l-15.7.1V290l15.7-.1zm39.9-.1v6.4l-17 .1v-6.4l17-.1zm18.4-.1v6.4l-15.7.1v-6.4l15.7-.1zm39.3-.1v6.4l-16.4.1v-6.4l16.4-.1zm-164.6 15.9l-15.7.1v-6.4l15.7-.1v6.4zm2.6-6.4l17.7-.1v6.4l-17.7.1v-6.4zm20.3 0l16.3-.1v6.4l-16.3.1v-6.4zm18.9-.1l15.7-.1v6.4l-15.7.1V299zm18.4-.1l17.7-.1v6.4l-17.7.1v-6.4zm20.3 0l17-.1v6.4l-17 .1v-6.4zm19.7-.1l15.7-.1v6.4l-15.7.1v-6.4zm18.3-.1l17.7-.1v6.4l-17.7.1v-6.4zm20.3 0l16.4-.1v6.4H735l-.1-6.3zm19-.1l15.7-.1v6.4l-15.6.1-.1-6.4zm-12.2-2.6l-17.7.1v-6.4l17.7-.1v6.4zm-58.3.2l-17.7.1v-6.4l17.7-.1v6.4zm-57.6.2l-17.7.1v-6.4l17.7-.1v6.4zm-48.1 2.8v6.4l-16.5.1v-6.4l16.5-.1zm194.6 5.7v-6.4l17.7-.1v6.4l-17.7.1zm-8.9-9v-6.4l15.7-.1v6.4l-15.7.1zm45.6-.1h-6.9v-6.4h6.9v6.4zm-9.6 0l-17.7.1v-6.4l17.7-.1v6.4zm-29.8-8.9l-15.7.1v-6.9l15.7-.1v6.9zm-18.3.1l-16.4.1v-6.9l16.4-.1v6.9zm-19 .1l-17.7.1v-6.9l17.7-.1v6.9zm-20.4 0l-15.7.1v-6.9l15.7-.1v6.9zm-18.3.1l-17 .1v-6.9l17-.1v6.9zm-19.7.1l-17.7.1v-6.9l17.7-.1v6.9zm-20.3 0l-15.7.1v-6.9l15.7-.1v6.9zm-18.3.1l-16.3.1v-6.9l16.3-.1v6.9zm-18.9.1l-17.7.1v-6.9l17.7-.1v6.9zm-20.4 0l-15.7.1v-6.9l15.7-.1v6.9zm-18.3.1l-16.2.1v-6.9l16.2-.1v6.9zm-18.9.1h-13.7v-6.9h13.7v6.9zm-16.3 0h-10v-6.9h10v6.9zM374 294.3l4.5-3.4 142-.5 5.5 3.3-152 .6zm-3.5-.6V291h3.7l-3.7 2.7zm.8 3.2l158-.6v6.8l-158 .6v-6.8zm158.5-3.8l-4.4-2.6h4.4v2.6zm-162-4.8h-10.7v-6.9h10.7v6.9zm-25.4 2.7l25.4-.1v13.9l-2.9 2.5-22.5.1V291zm190.1 13v-13.6l26.1-.1.1 16.4-22.1.1-4.1-2.8zm38.4 4.7l16.2-.1v6.4l-16.2.1v-6.4zm18.9-.1l15.7-.1v6.4l-15.7.1v-6.4zm18.3 0l17.7-.1v6.4l-17.7.1v-6.4zm20.4-.1l16.3-.1v6.4l-16.3.1v-6.4zm18.9-.1l15.7-.1v6.4l-15.7.1v-6.4zm18.3 0l17.7-.1v6.4l-17.7.1v-6.4zm20.4-.1l17-.1v6.4l-17 .1v-6.4zm19.6-.1l15.7-.1v6.4l-15.7.1v-6.4zm18.4 0l17.7-.1v6.4l-17.7.1v-6.4zm20.3-.1l16.4-.1v6.4l-16.4.1v-6.4zm19-.1l15.7-.1v6.4l-15.7.1V308zm18.3 0l17.7-.1v6.4l-17.7.1V308zm-9.5-21.1V280l17.7-.1v6.9l-17.7.1zm23.5-132l-244 .9-.1-27.2 256.8-.9.1 27.2h-12.8zM551.3 59.5l.8-1.9 237.4-.8 18.5 68.3-256.5.9-.2-66.5zm-2-2.1l-55.1-27.6V27l56.1 27.8-1 2.6zm-57.9-41.8l-79.7.3 40.4-13.1 39.3 12.8zm-82.7 11.8v2.8l-54.9 27.9-1.1-2.5 56-28.2zm-57.6 30.9l.8 1.9.1 30.8-134.6.5-49.5-24.6v-6.2h-5.8V59l189-.7zm-198.6-5.7l-79.7.3 40.4-13.1 39.3 12.8zm-86.7 2.9l93.6-.3v5.5l-93.6.3v-5.5zm-6 8.1h9.3v3.9l-9.3 4.7v-8.6zm-2.6 6.5v3.4L11.1 97l-1.3-3 47.4-23.9zm-45.6 121l21.7-.1.3 77.7-21.7.1-.3-77.7zm-8.9 89v-8.7l376.4-1.3v8.7L2.7 280.1zm3.1 2.6h6.5v6.6H5.8v-6.6zm6.6 18.2v6.6H5.9v-6.6h6.5zm329.9 15v-5.8l19.7-.1-2.6 2.3v3.6h-17.1zm199.6 10l8.6 5.9-196.5.8 7.1-6 180.8-.7zM351.7 346v-10.9l201.7-.7v10.9l-201.7.7zm191.6-30.8v-3.6l-3.1-2.2 18.4-.1v5.8l-15.3.1zm17.9-5.9v-.5h7.1v6.4h-7.1v-5.9zm240.9 5v-6.4h6.9v6.4h-6.9zm7.5-27.5l-17 .1V280l17-.1v6.9z"/>
  <path id="Path_450" class="st0" d="M593.5 117.4l29.8-.1-6.4-25h5.9v-14L616 64.1l-26 .1-6.7 14.2v14h5.9l-6.2 25h10.5zm16.5-11.6h-5.7v-6.3h5.7v6.3zm-8.3 0H596v-6.3h5.7v6.3zm-5.6 2.7h5.7v6.3h-5.7v-6.3zm8.3 6.3v-6.3h5.7v6.3h-5.7zm15.8-34.9v3.6l-34.3.1V80l34.3-.1zm-28.6-13.1l22.7-.1 5.1 10.6-32.8.1 5-10.6zm-5.7 23v-3.6l34.3-.1v3.6l-34.3.1zm28.3 2.5l5.7 22.4h-7.2l-.1-17.9-19.2.1.1 17.9h-7.1l5.5-22.4 22.3-.1z"/>
  <path id="Path_451" class="st0" d="M669.5 117.2l29.8-.1-6.4-25h5.9v-14L692 63.9l-26 .1-6.7 14.2v14h5.9l-6.2 25h10.5zm16.6-13.1h-5.7v-4.9h5.7v4.9zm-8.3 0h-5.7v-4.9h5.7v4.9zm-5.7 4.1h5.7v6.3h-5.7v-6.3zm8.4 6.3v-6.3h5.7v6.3h-5.7zm15.8-34.9v3.6l-34.3.1v-3.6l34.3-.1zm-28.6-13.1l22.7-.1 5.1 10.6-32.8.1 5-10.6zm-5.7 23v-3.6l34.3-.1v3.6l-34.3.1zm28.3 2.6l5.7 22.4h-7.2l-.1-17.9-19.2.1.1 17.9h-7.1l5.5-22.4 22.3-.1z"/>
  <path id="Path_452" class="st0" d="M745.7 116.9l29.8-.1-6.4-25h5.9v-14l-6.8-14.2-26 .1-6.7 14.2v14h5.9l-6.2 25h10.5zm16.6-11.6h-5.7V99h5.7v6.3zm-8.3 0h-5.7V99h5.7v6.3zm-5.7 2.6h5.7v6.3h-5.7v-6.3zm8.3 6.3v-6.3h5.7v6.3h-5.7zm15.7-34.8V83l-34.3.1v-3.6l34.3-.1zm-28.5-13.1l22.7-.1 5.1 10.6-32.8.1 5-10.6zm-5.7 23v-3.6l34.3-.1v3.6l-34.3.1zm28.3 2.5l5.7 22.4h-7.2l-.1-17.9-19.2.1.1 17.9h-7.2l5.5-22.4 22.4-.1z"/>
  <path id="Path_453" class="st0" d="M563.3 149.7l238.6-.8-.1-15-238.6.8.1 15zm2.5-12.4l233.3-.8v9.8l-233.3.8v-9.8z"/>
</svg>
