<svg xmlns="http://www.w3.org/2000/svg" viewBox="0 0 55.8 55.8">
  <path d="M27.9 0C12.5 0 0 12.5 0 27.9s12.5 27.9 27.9 27.9 27.9-12.5 27.9-27.9C55.8 12.5 43.3 0 27.9 0zm1.4 2.9c12.9.7 23.1 11.1 23.7 24h-2.6c0-.3-.1-.6-.1-.9-1-11-9.8-19.7-20.9-20.4l-.1-2.7zm3.2 6c5.6 1.4 10.4 5.2 12.9 10.4a9.72 9.72 0 00-7.8-.9v-.8c.1-3.6-1.9-7-5.1-8.7zm-6-6v2.7C15.4 6.3 6.6 14.9 5.6 26c-.1.3-.1.6-.1.9H2.8C3.4 14 13.6 3.6 26.5 2.9zM18 18.3c-2.6-.7-5.3-.4-7.7.9 2.5-5.1 7.2-8.9 12.7-10.3-3.1 1.7-5.1 5-5.1 8.6.1.3.1.6.1.8zM26.5 53C13.9 52.2 3.8 42.3 2.9 29.7h2.7c.9 11.1 9.8 19.8 20.9 20.5V53zm-3.4-6.1c-5.6-1.5-10.4-5.3-12.9-10.6 2.3 1.4 5.2 1.8 7.8 1v1c0 3.5 1.9 6.8 5.1 8.6zm4.7-1.6c-3.9 0-7-3.1-7-7 0-1 .2-2.1.7-3 .3-.7 0-1.5-.7-1.9-.5-.2-1-.2-1.4.1-3.1 2.3-7.5 1.6-9.8-1.5-.6-.8-1-1.7-1.2-2.7 0-.4-.1-.9-.1-1.4 0-.5 0-1.1.1-1.6.8-3.8 4.6-6.2 8.4-5.3.9.2 1.7.6 2.5 1.1.6.4 1.5.3 2-.4.3-.4.3-.9.1-1.3-1.5-3.6.2-7.7 3.7-9.2 3.6-1.5 7.7.2 9.2 3.7.8 1.8.7 3.8-.1 5.6-.3.7 0 1.5.7 1.9.5.2 1 .1 1.4-.2 1.2-.9 2.7-1.4 4.1-1.4 3.3 0 6.1 2.3 6.9 5.5 0 .5.1 1.1.1 1.6s0 .9-.1 1.4c-.7 3.2-3.6 5.6-6.9 5.6-1.6 0-3.1-.5-4.3-1.5-.6-.5-1.5-.4-2 .3-.3.4-.4 1-.1 1.5.5 1 .7 2 .7 3.1.2 3.8-3 7-6.9 7zm9.8-8.1c2.7.8 5.6.5 8-1-2.5 5.3-7.3 9.3-13.1 10.7 3.2-1.7 5.2-5 5.2-8.7 0-.3 0-.6-.1-1zm-8.3 15.7v-2.7c11.1-.7 20-9.5 20.9-20.5h2.7c-.9 12.6-11 22.5-23.6 23.2z" />
</svg>
