<svg version="1.1" id="Layer_1" xmlns="http://www.w3.org/2000/svg" x="0" y="0" viewBox="0 0 145.9 146.8" xml:space="preserve">
  <g id="Group_99" transform="rotate(-10.02 -48.982 211.138)">
    <g id="Group_96" transform="translate(23.683 26.017)">
      <path id="Path_353" class="st0" d="M13.9 87.8c-.3-.9-.7-1.4-1.5-1.2l-10 1.8c-.8.1-1 .7-1 1.7l-.6.1-1.2-6.6c-.6-3.6.1-5.7 2.2-6.1 1.5-.3 2.8.5 3.7 2.7-.1-2.7.9-4.3 2.9-4.6 2.3-.4 4.2 1.3 4.7 4.2.3 1.5.5 5.5 1.4 8h-.6zm-8.4-5.4C5.4 81 4.3 80 3 80.1c-.2 0-.4 0-.6.1-1.6.3-2.4 1.3-2.1 3.2l.2 1.2c.2.9.5 1.3 1.4 1.2l3-.5c.8-.1 1-.6.8-1.6l-.2-1.3zm6.9-1.5c-.4-2-1.5-3-3.5-2.6-2.2.4-3 1.9-2.4 5.4.1.8.5 1.2 1.3 1.1l4.2-.7c.6-.1.9-.4.8-1l-.4-2.2z"/>
      <path id="Path_354" class="st0" d="M11.5 67c0-1-.2-1.5-1-1.7l-10-1.7c-.8-.1-1.2.3-1.5 1.2l-.6-.1 1.2-6.8c.6-3.3 2.3-5.1 4.7-4.7 1.7.4 2.7 1.6 2.8 3.9 0 .2.2.2.2 0 .6-1.2 1.8-2 3.2-2.1 1.9-.3 3.2-.5 3.3-1.5l.6.1-.2 1c-.4 2.4-1.7 3-4.4 3.4-1.8.4-2.5 1.1-2.8 2.5-.2 1.1.1 1.5.9 1.6l3 .5c.8.1 1.2-.3 1.6-1.5l.6.1-1 5.8h-.6zm-5.3-7.6c.4-1.4-.4-2.9-1.9-3.3-.1-.1-.3-.1-.5-.1-1.3-.4-2.8.3-3.2 1.7-.1.2-.1.4-.1.6l-.3 1.6c-.1.6.1 1 .8 1.1l3.6.6c.8.1 1.2-.1 1.4-1l.2-1.2z"/>
      <path id="Path_355" class="st0" d="M17.8 44.3c.6-1.3.5-1.9-.2-2.3l-2.9-1.6c-.5-.3-1-.4-1.5-.3l-5.2.2c-1.7.1-2.5.3-3.2 1.1l-.5-.3 2.8-5 .5.3c-.4 1-.1 1.5 1.2 1.4l4.9-.3c.2 0 .2-.1.2-.3l-2.3-4.3c-.6-1.1-1.3-.9-2 0l-.5-.3 2.2-3.8.5.3c-.4 1-.1 1.8.5 3.1l2.6 4.8c.3.5.7.9 1.2 1.1l2.9 1.6c.7.4 1.2.1 2.1-1l.5.3-3.2 5.7-.6-.4z"/>
      <path id="Path_356" class="st0" d="M30 10.1l.4.5c-.6.7-.8 1.3-.3 1.9l7.8 9.2-.9.7-13.9-2.7 5.8 6.9c.5.6 1.1.5 1.9 0l.4.5-3.1 2.6-.4-.5c.6-.7.8-1.3.3-1.9l-6.5-7.8c-.5-.7-1.1-.5-2 0l-.4-.5 2.6-2.2 12.5 2.4-5.1-6.1c-.6-.7-1.1-.5-1.9 0l-.4-.5 3.2-2.5z"/>
      <path id="Path_357" class="st0" d="M70.9 10.4l.1.6-5.6.8-.1-.6c1.3-.4 1.3-.9.7-1.8l-.6-1c-.3-.4-.8-.6-1.3-.5l-3.9.5c-.5 0-1 .4-1.2.9l-.3.9c-.3 1.1.3 1.6 1.7 1.6l.1.6-4.7.7-.1-.6c1-.3 1.7-1.2 1.9-2.2L60.3.5c.2-.7.3-1.4.2-2.1l1.6-.4 6.4 10.2c.9 1.5 1.2 2.1 2.4 2.2zm-6.7-4l.8 1.3-3.5-5.8c-.3-.3-.4-.3-.5.1l-1.4 5.3v-.2c-.1.4.1.5.4.5l4-.6c.2 0 .4-.2.2-.6z"/>
      <path id="Path_358" class="st0" d="M80 11.3c1.4.1 2-.1 2.1-.9L84 .7c.2-1 0-1.3-1.4-1.5-1.5-.3-2.2.1-3.1 1.8l-.7-.1 1.1-3.1 1.2.2 9.3 1.8 1.3.2-.2 3.3-.7-.1c-.3-1.9-.7-2.5-2.2-2.8-1.5-.3-1.7-.1-1.9.9L84.8 11c-.2.8.3 1.2 1.7 1.6l-.1.6-6.5-1.2.1-.7z"/>
      <path id="Path_359" class="st0" d="M114.3 13.3l-5.4 8.6c-.4.7-.2 1.2.6 1.9l-.3.5-4.8-3 .3-.5c.9.4 1.5.4 1.9-.3l2-3.2c.3-.4.1-.8-.4-1.1l-4-2.5c-.4-.3-.9-.3-1.1.2l-2 3.2c-.4.7-.2 1.2.6 1.9l-.3.5-4.8-3 .3-.5c.9.4 1.5.4 1.9-.3l5.4-8.6c.5-.7.2-1.2-.6-1.9l.3-.5 4.8 3-.3.5c-.9-.4-1.5-.4-1.9.3l-2.1 3.3c-.3.5-.1.8.4 1.1l4 2.5c.5.3.9.3 1.2-.2l2.1-3.3c.5-.7.2-1.2-.6-1.9l.3-.5 4.8 3-.3.5c-.9-.4-1.5-.4-2 .3z"/>
      <path id="Path_360" class="st0" d="M117.5 32.1c1 1 1.5 1.3 2.2.8l2.7-2c.4-.3.8-.8.9-1.3l1.8-4.9c.6-1.6.7-2.4.3-3.3l.5-.4 3.5 4.6-.5.4c-.8-.8-1.3-.7-1.8.5l-1.7 4.6c-.1.2 0 .3.2.3l4.9-.4c1.3-.1 1.4-.8.8-1.8l.5-.4 2.7 3.5-.5.4c-.7-.8-1.6-.9-3-.8l-5.4.4c-.6.1-1.1.3-1.5.7l-2.7 2c-.7.5-.6 1.1.1 2.3l-.5.4-3.9-5.2.4-.4z"/>
      <path id="Path_361" class="st0" d="M143.9 56.9l-.6.2c-.4-.9-.8-1.3-1.6-1l-11.6 3.4-.3-1 8-11.6-8.7 2.5c-.8.2-.9.8-.8 1.8l-.6.2-1.1-3.9.6-.2c.4.9.8 1.3 1.6 1.1l9.7-2.8c.8-.2.9-.8.8-1.8l.6-.2 1 3.3-7.2 10.5 7.6-2.2c.8-.2.9-.8.8-1.8l.6-.2 1.2 3.7z"/>
      <path id="Path_362" class="st0" d="M136.4 86.1c4.4 1.5 5.7 5.9 4.4 9.7-1.1 3.3-3.6 4.5-5.2 3.9-.8-.2-1.3-1-1.1-1.9 0-.1 0-.1.1-.2.2-.8 1.1-1.2 1.8-1 .1 0 .1 0 .2.1 1.5.6 3.1-.2 3.6-1.6 0-.1.1-.2.1-.2.8-2.3-.5-4.7-3.8-5.8-4-1.4-7.3.5-8.3 3.6-.5 1.4-.3 3 .5 4.2l-.5.3c-1.5-1.8-1.9-4.3-1-6.4 1.1-3.8 5.1-5.9 8.9-4.8.1 0 .2 0 .3.1z"/>
      <path id="Path_363" class="st0" d="M127 107.7c3.1 2.5 3.6 7.1 1.1 10.2-.1.1-.2.2-.2.3-2.4 3-6.8 3.5-9.8 1.1-.1-.1-.2-.1-.2-.2-3.1-2.5-3.6-7.1-1.1-10.2l.3-.3c2.4-3 6.8-3.5 9.8-1.1 0 0 .1.1.1.2zm-8.1 8.4c3.2 2.7 6.9 3 8.7.9 1.2-1.4 1.4-3.9-1.7-6.5-3.3-2.7-7-3-8.7-1-1.2 1.6-1.3 4.1 1.7 6.6z"/>
      <path id="Path_364" class="st0" d="M106.5 119.8c-.8.6-1.1 1.1-.7 1.9l5 8.8c.4.7 1 .7 1.9.4l.3.5-4.9 2.8-.3-.5c.8-.6 1.1-1.1.7-1.9l-5-8.8c-.4-.7-1-.9-1.9-.3l-2.4 1.5c-1 .5-1.6 1.5-1.6 2.5v.9l-.5.3-.3-1.4c-.1-.6-.3-1.1-.6-1.6l10-5.7.3.6z"/>
      <path id="Path_365" class="st0" d="M88.8 128.4c-.9.3-1.4.7-1.2 1.5l1.9 10c.2.8.7 1 1.7 1l.1.6-5.5 1.1-.1-.6c.9-.3 1.4-.7 1.2-1.5l-1.9-10c-.1-.8-.6-1.1-1.7-.9l-2.7.7c-1.1.1-2 .9-2.3 1.9l-.3.8-.6.1.1-1.4c.1-.6.1-1.1-.1-1.7l11.3-2.2.1.6z"/>
      <path id="Path_366" class="st0" d="M69.2 130.9c-1 0-1.5.2-1.6 1.1l-1.4 10c-.1.8.4 1.2 1.3 1.5l-.1.6-10.5-1.5c-.2 0-.3-.1-.3-.3 0-.9 0-1.8-.1-2.7l.5.1c.2 1.3 1.3 2.3 2.6 2.4l2.5.3c.9.1 1.4-.1 1.5-.9l.5-3.3c.1-.8-.3-1.2-1.2-1.3l-1.7-.2c-1.5-.2-1.9.3-2.2 1.3l-.4-.1.6-4.1.4.1c0 1 .2 1.6 1.8 1.9l1.7.2c.9.1 1.4-.1 1.5-.9l.5-3.5c.1-.8-.3-1.2-1.6-1.3L61 130c-1.6-.2-2.2.2-2.6.8l-.6.8-.5-.1c.5-.7.8-1.6 1-2.4 0-.2.2-.3.4-.3l10.9 1.5-.4.6z"/>
      <path id="Path_367" class="st0" d="M47.3 132.7c-2.2 4.2-6.7 4.8-10.3 3-3.1-1.6-3.9-4.2-3.2-5.7.3-.7 1.2-1.1 1.9-.8.1 0 .1 0 .2.1.7.3 1 1.1.7 1.8v.1c-.8 1.4-.3 3.1 1 3.9.1.1.2.1.3.2 2.2 1.1 4.7.1 6.3-2.8 1.9-3.8.8-7.8-2-9.3-.8-.4-1.5-.5-1.9.3l-1.2 2.3c-.5.9-.3 1.2 1.1 2.1l-.2.4-5.1-2.6.2-.4c1.1.4 1.4.4 1.9-.5l2.1-4.1c.9 1.7 2.6 1.1 5 2.3 3.5 1.7 5.1 5.9 3.4 9.5-.1 0-.1.1-.2.2z"/>
      <path id="Path_368" class="st0" d="M31.6 115.6c-.8-.6-1.3-.8-1.9-.2l-7.5 6.9c-.6.6-.5 1.1.1 2l-.5.4-7.2-7.8c-.1-.1-.2-.3 0-.4.6-.7 1.2-1.4 1.6-2.1l.3.3c-.6 1.1-.5 2.5.5 3.5l1.7 1.9c.6.7 1.1.8 1.8.3l2.4-2.2c.6-.6.5-1.1-.1-1.8l-1.2-1.3c-1.1-1.1-1.6-1-2.5-.4l-.3-.3 3-2.8.3.3c-.6.8-.9 1.4.2 2.6l1.2 1.3c.6.7 1.1.8 1.8.3l2.6-2.4c.6-.5.5-1.1-.4-2.1l-1.7-1.8c-1.1-1.1-1.8-1.2-2.5-1.1l-1 .2-.3-.4c.9-.3 1.6-.7 2.3-1.2.1-.1.4-.1.5 0l7.4 8.1-.6.2z"/>
    </g>
    <g id="Group_97" transform="translate(59.268 70.56)">
      <path id="Path_369" class="st0" d="M-1.6 16.8c2.3-.1 2.9-.6 2.9-2.2V3.1c0-1-.3-1.5-1.2-1.3l-1.6.2V.7l6-2.7c.7-.3 1.7 0 1.7.5v16.1c0 1.6.6 2.1 2.9 2.2v1.4H-1.6v-1.4z"/>
      <path id="Path_370" class="st0" d="M28.6 12.6c0 3.9-3.8 6-8.7 6-5.1 0-8.7-2.3-8.7-6 0-1.9.9-3.5 3.2-4.8-1.3-1.1-2-2.7-2-4.4 0-4 4.1-5.7 7.6-5.7s7.2 1.7 7.2 5c0 1.8-.9 3.2-3.2 4.3 2.3 1 4.6 2.5 4.6 5.6zm-5 1.1c0-1.2-.5-2.2-3.2-3.1l-3-1c-.4-.1-.8-.3-1.1-.5-.8.8-1.2 1.8-1.2 2.9 0 2.2 1.3 5.1 4.8 5.1 1.8.2 3.4-1.1 3.6-2.9.1-.2.1-.4.1-.5zM17.1 2.1c0 1.3.6 2.6 2.9 3.5l1.5.5c1.3-.7 2-2 2-3.4.2-1.7-1-3.3-2.8-3.5h-.5c-1.5-.2-2.9.9-3 2.4-.1.2-.1.4-.1.5z"/>
    </g>
    <g id="Group_98" transform="translate(101.594 109.869)">
      <path id="Path_371" class="st0" d="M10.9 2.2H5.5c-3.7 0-4.6.6-6 1.9h-1.2L.4-2.4l2.8.3h11.1L4.1 18H1.2l9.7-15.8z"/>
      <path id="Path_372" class="st0" d="M28.9 2.2h-5.4c-3.7 0-4.6.6-6 1.9h-1.2l2.1-6.5 2.8.3h11.1L22.1 18h-2.9l9.7-15.8z"/>
    </g>
    <path id="Rectangle_79" transform="rotate(134.999 97.268 95.11)" class="st0" d="M56.3 94.6h82v1.1h-82z"/>
  </g>
</svg>
