<svg version="1.1" id="Layer_1" xmlns="http://www.w3.org/2000/svg" x="0" y="0" viewBox="0 0 258.9 259" xml:space="preserve">
  <g id="Group_69" transform="translate(24.449 22.656)">
    <path id="Path_172" class="st0" d="M74.9 2.5c1.7 4.4-.5 9.4-4.9 11.2h-.1l-8.4 3.2L51-10.5l7.6-2.9c4.4-1.8 9.4.4 11.1 4.8.7 1.9.8 4.1 0 6 2.4.9 4.3 2.7 5.2 5.1zm-15-3.6l2.8-1.1c1.8-.6 2.7-2.6 2.1-4.4-.6-1.8-2.6-2.7-4.4-2.1-.1 0-.1 0-.2.1l-2.8 1.1 2.5 6.4zm10 5.5c-.7-1.8-2.7-2.6-4.4-1.9l-3.6 1.4 2.5 6.4L68 8.9c1.6-.8 2.5-2.7 1.9-4.5z"/>
    <path id="Path_173" class="st0" d="M88.8-3.3l-1.9.2 1.5 11.6-5.2.7-3.7-29.1 9-1.1c4.8-.6 9.2 2.8 9.9 7.7.4 3.5-1.3 7-4.4 8.7l8.8 11.4-5.9.7-8.1-10.8zm-2.6-5l3.8-.4c2-.2 3.4-2 3.2-4-.2-2-2-3.4-4-3.2h-.1l-3.8.5.9 7.1z"/>
    <path id="Path_174" class="st0" d="M121.2-5l-1.6 13.2-5.2-.6L116-5.6l-7.3-17 6.3.8 4.4 10.5 6.8-9.2 6.3.8L121.2-5z"/>
    <path id="Path_175" class="st0" d="M166.5-7.2l-11.5 27-3.7-1.6-4.8-23.4-7.7 18-4.8-2 11.5-27 3.6 1.5L154 8.9l7.7-18.1 4.8 2z"/>
    <path id="Path_176" class="st0" d="M192.5 58.1l3.2-4.7-6.7-10-5.6 1.2-3.2-4.7 30.9-6.7 2.3 3.4-17.8 26.2-3.1-4.7zm6.4-9.2L205 40l-10.5 2.3 4.4 6.6z"/>
    <path id="Path_177" class="st0" d="M224.1 71.3l-2.4-6.1-22.6 8.7-1.8-4.8 22.6-8.7-2.4-6.1 4.8-1.9 6.6 17.1-4.8 1.8z"/>
    <path id="Path_178" class="st0" d="M234.5 101.8l-29.1 3.5-.6-5.1 12.3-1.5-1.2-9.8-12.3 1.5-.6-5.1 29.1-3.5.6 5.1-12.3 1.5 1.2 9.8 12.3-1.5.6 5.1z"/>
    <path id="Path_179" class="st0" d="M216.4 127l-13.2-2.1.8-5.1 13.2 2.1 17.3-6.7-1 6.2-10.7 4 8.9 7.1-1 6.2-14.3-11.7z"/>
    <path id="Path_180" class="st0" d="M217 172.4l-26.6-12.5 1.7-3.7 23.5-4-17.7-8.3 2.2-4.7 26.6 12.5-1.7 3.6-23.6 4 17.8 8.4-2.2 4.7z"/>
    <path id="Path_181" class="st0" d="M166.1 211c-2.8-4-1.8-9.6 2.2-12.4l3.2-2.2-6.7-9.6 4.3-3 16.8 24.1-7.4 5.2c-4 2.8-9.6 1.9-12.4-2.1zm4.3-3c1.1 1.6 3.4 2 5 .9l3.2-2.2-4.2-6-3.2 2.2c-1.5 1.1-2 3.3-.8 5.1 0-.1 0-.1 0 0z"/>
    <path id="Path_182" class="st0" d="M134.9 202.4l15-6.1 11.1 27.2-15 6.1-2-4.8 10.2-4.2-2.7-6.6-9.6 3.9-1.7-4.2 9.6-3.9-2.7-6.7-10.2 4.2-2-4.9z"/>
    <path id="Path_183" class="st0" d="M111 236.4l-3.9-29.1 4-.5 16.1 17.6-2.6-19.4 5.1-.7 3.9 29.1-3.9.5-16.2-17.7 2.6 19.5-5.1.7z"/>
    <path id="Path_184" class="st0" d="M74.5 232.8l4.4-29 4 .6 10.5 21.4 2.9-19.4 5.1.8-4.4 29-3.9-.6-10.6-21.5-2.9 19.5-5.1-.8z"/>
    <path id="Path_185" class="st0" d="M65.8 198.2c2.8 1.2 5 3.6 6.8 6.9l-4.3 3.2c-.9-2-2.5-3.7-4.5-4.8-1.9-.8-3.7-.3-4.4 1.4-1 2.4 1.5 4.7 3.6 7.3 2.4 3 3.8 6.3 2 9.8-2.1 4.3-7 5.6-11.4 3.6-2.1-1-3.8-2.6-5.1-4.5l4-2.7c.8 1.2 1.9 2.2 3.2 2.9 1.9.8 3.8.2 4.5-1.4.8-2-1-3.8-2.8-5.8-1.9-2.1-5.3-6.3-3.2-11.3 1.8-4.4 6.8-6.4 11.2-4.6.1-.1.2-.1.4 0z"/>
    <path id="Path_186" class="st0" d="M35.3 195.9l8-10.7 4.2 3.1-8 10.7-2.1 18.4-5.1-3.8 1.5-11.3-10.4 4.6-5.1-3.8 17-7.2z"/>
    <path id="Path_187" class="st0" d="M22.5 163.3l9.8 12.1-22.8 18.5-3.3-4L25 174.7l-6.5-8.1 4-3.3z"/>
    <path id="Path_188" class="st0" d="M15.5 150.6l1.8 3.4L-4 177l-2.6-5 14.4-15.3-20.8 2.8-2.6-5 31.1-3.9z"/>
    <path id="Path_189" class="st0" d="M6 120.9l-4.6 3.2L4 135.9l5.6.9 1.3 5.5-31.2-4.9-.9-4 26-18.1 1.2 5.6zm-9.3 6.4l-8.9 6.1 10.7 1.6-1.8-7.7z"/>
    <path id="Path_190" class="st0" d="M-22.6 85.2l29.3 2.3-.3 4-20.6 12 19.5 1.6-.4 5.2-29.3-2.3.3-3.9L-3.4 92-23 90.4l.4-5.2z"/>
    <path id="Path_191" class="st0" d="M8.6 81.8l-28.2-8.1 1.4-4.9L10 76.9l-1.4 4.9z"/>
    <path id="Path_192" class="st0" d="M21.4 52l-5.6-.7L10 62l3.6 4.4-2.7 5-20.2-24.3 2-3.6L24.2 47l-2.8 5zm-11.1-1.3L-.4 49.4l6.9 8.3 3.8-7z"/>
  </g>
  <g id="Group_70" transform="translate(119.894 122.438)">
    <path id="Path_193" class="st0" d="M3.7 4.2c.6.2 1.2-.1 1.3-.7.2-.6-.2-1.2-.8-1.3-.5-.2-1.1.1-1.3.7-.1.6.2 1.2.8 1.3z"/>
    <path id="Path_194" class="st0" d="M38.6-6.9l4-7.8-50.5-13.6-.4 8.8-9-2.4-2.8 56.4 41.9 11.2L47.6-4.5l-9-2.4zM-6.8 8.5L-8.6 8l2.3-8.7-1.8-.5.4-1.6 3.6 1-2.7 10.3zm8.7 2.4C.1 10.4-1 8.5-.5 6.7c.3-1 1-1.8 1.9-2.2-.3-.6-.4-1.4-.2-2.1.4-1.5 2-2.4 3.6-2 1.5.4 2.4 2 2 3.5-.2.7-.6 1.3-1.2 1.7.6.8.8 1.9.5 2.9-.5 1.8-2.4 2.9-4.2 2.4zm16.4-4.8l-5.2 7.7-2-.5 5.2-7.7-3.9-1.1.5-1.8 5.9 1.6-.5 1.8zm10.5 2.8l-5.2 7.7-2-.5 5.2-7.7L23 7.3l.5-1.8 5.9 1.6-.6 1.8z"/>
    <path id="Path_195" class="st0" d="M3.2 6c-.9-.2-1.7.3-2 1.1-.2.9.3 1.8 1.2 2 .9.2 1.7-.3 2-1.1.2-.9-.3-1.8-1.2-2z"/>
  </g>
  <path id="Path_196" class="st0" d="M116.6 188.4l.1 6.7 6.7.1-5.8 3.5 3.3 5.9-5.9-3.3-3.5 5.8-.1-6.7-6.7-.1 5.8-3.5-3.3-5.9 5.9 3.3 3.5-5.8z"/>
  <path id="Path_197" class="st0" d="M151.6 57.8l.1 6.7 6.7.1-5.8 3.5 3.3 5.9-5.9-3.3-3.5 5.8-.1-6.7-6.7-.1 5.8-3.5-3.3-5.9 5.9 3.3 3.5-5.8z"/>
  <path id="Path_198" class="st0" d="M75.6 117.4l-6.7.1-.1 6.7-3.5-5.8-5.9 3.3 3.3-5.9-5.8-3.5 6.7-.1.1-6.7 3.5 5.8 5.9-3.3-3.3 5.9 5.8 3.5z"/>
  <path id="Path_199" class="st0" d="M206.2 152.4l-6.7.1-.1 6.7-3.5-5.8-5.9 3.3 3.3-5.9-5.8-3.5 6.7-.1.1-6.7 3.5 5.8 5.9-3.3-3.3 5.9 5.8 3.5z"/>
  <path id="Path_200" class="st0" d="M156 181.4l4.8 4.7 4.8-4.7-1.6 6.5 6.5 1.8-6.5 1.8 1.6 6.5-4.8-4.7-4.8 4.7 1.6-6.5-6.5-1.8 6.5-1.8-1.6-6.5z"/>
  <path id="Path_201" class="st0" d="M88.4 64.3l4.8 4.7 4.8-4.7-1.6 6.5 6.5 1.8-6.5 1.8 1.6 6.5-4.8-4.7-4.8 4.8 1.6-6.5-6.5-1.8 6.5-1.8-1.6-6.6z"/>
  <path id="Path_202" class="st0" d="M76.8 160.1l-4.7 4.8 4.7 4.8-6.5-1.6-1.8 6.5-1.8-6.5-6.5 1.6 4.7-4.8-4.7-4.8 6.5 1.6 1.8-6.5 1.8 6.5 6.5-1.6z"/>
  <path id="Path_203" class="st0" d="M193.9 92.6l-4.7 4.8 4.7 4.8-6.5-1.6-1.8 6.5-1.8-6.5-6.5 1.6 4.7-4.8-4.7-4.8 6.5 1.6 1.8-6.5 1.8 6.5 6.5-1.6z"/>
</svg>
