<svg version="1.1" id="Layer_1" xmlns="http://www.w3.org/2000/svg" x="0" y="0" viewBox="0 0 295.1 21.5" xml:space="preserve">
  <path id="Path_6" class="st0" d="M4.7 11.9v5.8c.1 1.3.1 1.7.9 2.1.8.3 1.6.4 2.4.4 2 .1 3.7-1.4 3.8-3.4v-.4c.1-2.1-.9-4.1-2.6-5.4-.7-.5-1.4-.7-2.2-.8-.4-.1-1.7-.1-2.1-.1-.1 0-.2.1-.2.2v1.6zm0-2.9c0 .2.1.2.2.3.5.1 1.1.1 1.6.1 1.5 0 1.9-.1 2.5-.7.6-.8 1-1.7 1-2.7 0-2.2-1-4.6-3.6-4.6-.4 0-.9 0-1.3.1-.3 0-.4.1-.4.3V9zm-2.1-.6c0-4.2 0-5-.1-5.8-.1-.9-.3-1.4-1.2-1.6H.4C.3 1 .2.9.2.8.2.6.3.6.6.6c1.2 0 2.9.1 3 .1.6 0 1.7-.1 2.9-.1 4.4 0 5.4 2.7 5.4 4 0 2.2-1.3 3.5-2.5 4.9 2 .6 4.7 2.5 4.7 5.7 0 2.9-2.3 5.9-6.9 5.9-.2 0-1.1-.1-1.9-.1-.8-.1-1.5-.1-1.6-.1H2.6c-.5 0-1.2.1-1.6.1-.3 0-.4-.1-.4-.2s.1-.2.2-.2c.3 0 .5 0 .8-.1.5-.1.7-.7.8-1.5.1-1.1.1-3.3.1-5.9V8.4z"/>
  <path id="Path_7" class="st0" d="M7.3 21.3h-2c-.8-.1-1.5-.1-1.6-.1H1c-.2 0-.6 0-.6-.4 0-.2.2-.4.4-.4.3 0 .5 0 .8-.1.4-.1.5-.5.6-1.3.1-1.1.1-3.3.1-5.8V8.4c0-4.2 0-5-.1-5.8 0-.9-.2-1.2-.9-1.4H.4C.2 1.2 0 1 0 .8 0 .4.5.4.6.4c.9 0 2.1 0 2.7.1h1.4C5.2.5 5.9.4 6.6.4c4.4 0 5.6 2.7 5.6 4.3 0 2.2-1.2 3.5-2.4 4.8 1.8.7 4.5 2.5 4.5 5.8.1 3.9-3.5 6-7 6zm-3.6-.6c.1 0 .9 0 1.7.1h2c4.6 0 6.7-2.9 6.7-5.7 0-3.2-2.8-5-4.5-5.5h-.5l.2-.2c1.3-1.3 2.5-2.6 2.5-4.7 0-1.4-1.1-3.8-5.2-3.8-.7 0-1.4 0-1.9.1h-1-.4C2.8 1 1.9.9 1 .9c.1 0 .2 0 .3.1 1 .2 1.3.8 1.3 1.7.1.9.1 1.6.1 5.8v4.7c0 2.6 0 4.7-.1 5.9-.1.6-.2 1.5-.9 1.7-.1 0-.2.1-.4.1h1.3c.6-.2 1-.2 1.1-.2zm4.3-.3c-.8 0-1.7-.1-2.5-.4-.9-.4-1-.9-1-2.2v-.1-7.3c0-.2.1-.4.3-.4h.1c1.2 0 1.9 0 2.1.1.8.1 1.6.3 2.3.8 1.8 1.3 2.8 3.4 2.7 5.6.1 2.1-1.4 3.9-3.5 4-.1-.1-.3-.1-.5-.1zM4.9 10.3V17.7c.1 1.3.1 1.6.9 1.9.7.3 1.5.4 2.2.4 1.9.1 3.5-1.4 3.6-3.3v-.3c.1-2.1-.9-4-2.5-5.2-.6-.4-1.4-.7-2.1-.7-.3-.1-1-.2-2.1-.2zm1.6-.7c-.6 0-1.1 0-1.7-.1-.2-.1-.3-.3-.3-.5V1.8c0-.3.2-.5.5-.5.4-.1.9-.1 1.3-.1 2.8 0 3.8 2.6 3.8 4.8 0 1-.4 2.1-1 2.9-.6.7-1.1.7-2.6.7zm-1.6-.5c.6.1 1.1.1 1.6.1 1.5 0 1.8 0 2.3-.6.7-.8 1-1.7 1-2.6 0-2.1-.9-4.4-3.4-4.4-.4 0-.8 0-1.2.1-.1 0-.2.1-.2.1l-.1 7.3c0-.1 0 0 0 0z"/>
  <path id="Path_8" class="st0" d="M21 12.2c0 .1.1.2.2.3.8.3 1.7.4 2.6.4.6 0 1.2-.1 1.8-.4 1-.9 1.6-2.2 1.4-3.5 0-2.9-1.6-4.5-4.1-4.5-.6 0-1.1 0-1.7.1-.1 0-.2.2-.2.3v7.3zm-2-1.9c0-3.6 0-4.2-.1-4.9-.1-.8-.2-1.2-1-1.3-.2-.1-.5-.1-.8-.1-.1 0-.2-.1-.2-.2s.1-.2.4-.2c1.1 0 2.7.1 2.8.1.2 0 2.2-.1 3-.1 1.5-.1 3.1.2 4.4 1 1 .7 1.6 1.9 1.6 3.1 0 1.7-.7 3.3-2.9 5.2 1.9 2.4 3.6 4.5 5 5.9.8 1.1 2.1 1.7 3.5 1.7.1 0 .2.1.2.2s-.1.2-.6.2h-1.5c-.9.1-1.7-.1-2.5-.5-1-.5-1.9-1.6-3.2-3.4-1-1.2-2-2.7-2.6-3.3-.1-.1-.2-.1-.3-.1l-3-.1c-.1 0-.2.1-.2.2v.5c0 2.2 0 4 .1 4.9.1.7.2 1.1.9 1.2.3.1.7.1 1.1.1.1 0 .2.1.2.1 0 .1-.1.2-.4.2-1.3 0-2.8-.1-2.9-.1 0 0-1.6.1-2.3.1-.2 0-.4-.1-.4-.2s.1-.2.2-.2c.2 0 .5 0 .7-.1.5-.1.5-.5.6-1.2.1-1.7.2-3.3.1-5l.1-3.7z"/>
  <path id="Path_9" class="st0" d="M34.3 21.2h-1.5c-.9.1-1.8-.1-2.6-.5-1.1-.6-1.9-1.7-3.3-3.4-.6-.7-1.1-1.4-1.6-2.1-.4-.5-.7-1-1-1.3-.1-.1-.1-.1-.2-.1l-3-.1v.5c0 2.2 0 4 .1 4.9.1.7.2 1 .8 1 .3.1.7.1 1 .1.2 0 .4.1.4.3v.1c0 .1 0 .4-.6.4-1 0-2.2 0-2.7-.1h-.4c-.4 0-1.6.1-2.2.1-.5 0-.6-.2-.6-.4s.2-.4.4-.4.5 0 .7-.1c.3-.1.3-.3.5-1V19c.1-1.6.2-3.3.1-4.9v-4c0-3.6 0-4.2-.1-4.9-.1-.8-.2-1-.8-1.1-.3 0-.5 0-.8-.1-.2 0-.4-.2-.4-.4 0-.3.2-.4.6-.4H22.8c1.6-.1 3.2.2 4.5 1 1.1.8 1.7 2 1.7 3.3 0 1.9-.9 3.5-2.8 5.3l.2.3c1.8 2.2 3.3 4.2 4.6 5.5.6.8 1.5 1.3 2.5 1.5.3.1.5.1.8.1.2 0 .4.2.4.4.4.6-.1.6-.4.6zm-13.1-7.8l3 .1c.2 0 .4.1.5.2.2.3.6.8 1 1.3.5.7 1 1.4 1.6 2.1 1.3 1.7 2.2 2.8 3.2 3.3.8.4 1.6.5 2.4.4h1.3c-.1 0-.2 0-.3-.1-1.1-.2-2.1-.8-2.8-1.7-1.3-1.4-2.9-3.3-4.7-5.5L26 13l.2-.1c2-1.7 2.8-3.2 2.8-5.1 0-1.2-.6-2.3-1.6-3-1.3-.7-2.8-1.1-4.3-1H17.8h.2c1 .1 1.1.7 1.1 1.5s.1 1.4.1 4.9v4.1c0 1.7 0 3.3-.1 5v.1c-.1.7-.2 1.2-.8 1.3-.1 0-.3.1-.4.1.6 0 1.7-.1 2-.1h.4c.4 0 1.4.1 2.3.1-.2 0-.4 0-.6-.1-.9-.1-1-.7-1.1-1.4-.1-1-.1-2.7-.1-5v-.5c0-.2.1-.4.4-.4-.1 0-.1 0 0 0zm2.6-.3c-.9 0-1.8-.1-2.7-.4-.2-.1-.3-.3-.3-.5V4.8c0-.2.1-.4.3-.5.6-.1 1.2-.1 1.7-.1 2.7 0 4.3 1.8 4.3 4.7.1 1.4-.4 2.8-1.5 3.7-.5.4-1.2.5-1.8.5zm-2.5-8.3c-.1 0-.1 0 0 0l-.1 7.4c0 .1 0 .1.1.1.8.2 1.7.3 2.5.3.6 0 1.2-.1 1.7-.4 1-.8 1.5-2.1 1.3-3.3 0-2.7-1.5-4.3-3.9-4.3-.6 0-1.1.1-1.6.2z"/>
  <path id="Path_10" class="st0" d="M39.3 15c.1-.8-.1-1.6-.5-2.3-.2-.4-3.4-5.4-4.2-6.7-.4-.7-.9-1.2-1.6-1.7-.3-.2-.7-.3-1-.3-.1 0-.2-.1-.2-.2s.1-.2.3-.2c.5 0 2.2.1 2.3.1.2 0 1.1-.1 2.1-.1.3 0 .3.1.3.2s-.2.2-.4.2c-.2.1-.3.2-.3.4 0 .3.1.6.3.9l4.3 7.1c.5-1 3.5-5.9 3.9-6.6.2-.3.4-.7.4-1.2 0-.3-.1-.5-.4-.6-.2-.1-.4-.2-.4-.3 0-.1.1-.1.4-.1.6 0 1.5.1 1.6.1.2 0 1.9-.1 2.3-.1.2 0 .3.1.3.1 0 .1-.2.3-.3.2-.4 0-.8.1-1.1.3-.5.3-.9.7-1.2 1.1-.8.9-4.1 6.3-4.6 7.3-.3.7-.4 1.5-.3 2.3v2c0 .4 0 1.3.1 2.3.1.7.2 1.1.9 1.2.4.1.7.1 1.1.1.1 0 .2.1.2.2s-.1.2-.4.2c-1.3 0-2.9-.1-3-.1-.1 0-1.6.1-2.3.1-.3 0-.4-.1-.4-.2s.1-.2.2-.2c.2 0 .5 0 .7-.1.5-.1.6-.5.7-1.2.1-.9.1-1.9.1-2.3l.1-1.9z"/>
  <path id="Path_11" class="st0" d="M43.3 21.2c-1 0-2.1 0-2.7-.1h-.3-.4c-.5 0-1.4.1-2 .1-.4 0-.6-.1-.6-.4 0-.2.2-.4.4-.4s.4 0 .7-.1c.3-.1.5-.3.5-1 .1-.9.1-1.9.1-2.3v-2c.1-.8-.1-1.6-.5-2.2-.2-.4-3.4-5.4-4.2-6.6-.4-.6-.9-1.2-1.5-1.6-.3-.2-.6-.3-.9-.3-.2 0-.4-.2-.4-.4 0-.1.1-.4.5-.4h4.3c.1 0 .5 0 .5.4 0 .2-.3.3-.5.4-.2.1-.2.1-.2.2 0 .3.1.5.3.7v.1l4.1 6.8c.5-.9 1.8-3.1 2.7-4.7.5-.8.9-1.4 1-1.7.2-.3.3-.7.4-1.1 0-.3-.1-.4-.2-.4-.3-.1-.5-.3-.5-.5 0-.1.1-.3.6-.3h3.9c.2 0 .5.1.5.3 0 .3-.2.5-.5.4-.4 0-.7.1-1 .3-.4.3-.8.7-1.1 1.1-.8.9-4.1 6.3-4.6 7.2-.3.6-.3 1.2-.3 1.8v2.4c0 .4 0 1.3.1 2.3.1.7.2.9.7 1 .3.1.7.1 1 .1.2 0 .4.2.4.4.3.3.2.5-.3.5zm-3-.5h.3c.5 0 1.5.1 2.4.1-.2 0-.5 0-.6-.1-.9-.1-1-.8-1.1-1.4-.1-1-.1-1.9-.1-2.3v-2-.4c-.1-.7 0-1.4.3-2 .5-.9 3.8-6.4 4.6-7.3.3-.5.8-.9 1.2-1.2.4-.1.7-.2.9-.3h-3.5c.4.1.6.4.5.8 0 .5-.2.9-.4 1.3-.1.2-.5.9-1 1.7-1 1.7-2.6 4.3-2.9 5l-.2.3-4.5-7.5c-.2-.3-.3-.6-.3-.9 0-.3.2-.5.4-.6H34.4h-2.1c.3.1.6.2.8.3.6.5 1.2 1.1 1.6 1.7.8 1.2 4 6.3 4.2 6.7.4.7.6 1.6.5 2.4v2c0 .4 0 1.4-.1 2.3 0 .6-.2 1.3-.9 1.4-.1 0-.2.1-.4.1.5 0 1.3 0 1.8-.1h.5z"/>
  <path id="Path_12" class="st0" d="M53.1 17.8c.1 1.9.3 2.5.9 2.6.4.1.8.1 1.2.1.1 0 .2.1.2.2s-.2.2-.4.2c-1.3 0-2.3-.1-2.5-.1s-1.2.2-2.3.2c-.2 0-.4 0-.4-.2 0-.1.1-.2.2-.2.3 0 .7 0 1-.1.6-.2.7-.8.7-2.9V4.5c0-.9.1-1.2.3-1.2.3 0 .7.5.9.7.4.4 3.8 4 7.5 7.8 2.3 2.4 4.9 5.2 5.6 5.9l-.3-11.5c0-1.5-.2-2-.9-2.1-.3-.1-.7-.1-1.1-.1-.2 0-.2-.1-.2-.2s.2-.2.5-.2c1.1 0 2.2.1 2.5.1.3 0 1.1-.1 2-.1.2 0 .4 0 .4.2 0 .1-.1.2-.3.2-.2 0-.4 0-.6.1-.8.2-.8.6-.8 2l-.1 13.4c0 1.5 0 1.6-.2 1.6s-.5-.2-1.8-1.4c-.2-.2-3.7-3.6-6.2-6.2-2.8-2.9-5.4-5.7-6.2-6.5l.4 10.8z"/>
  <path id="Path_13" class="st0" d="M67 21.3c-.3 0-.6-.2-1.9-1.5-.2-.2-3.7-3.6-6.2-6.2-2.3-2.4-4.7-4.9-5.8-6.1l.3 10.3c.1 1.9.3 2.3.8 2.4.4.1.8.1 1.1.1.2 0 .4.2.4.4s-.1.4-.6.4c-1 0-1.7 0-2.2-.1h-.3-.4c-.4 0-1.1.1-1.9.1-.2 0-.6 0-.6-.4 0-.2.2-.4.4-.4.3 0 .6 0 .9-.1.4-.1.5-.6.5-2.7v-13c0-.7.1-1.4.5-1.4.3 0 .6.3 1 .7v.1l1.3 1.3c1.4 1.5 3.8 4 6.2 6.5 1.5 1.6 3.1 3.3 4.3 4.5.4.4.7.8 1 1.1l-.2-11c0-1.6-.2-1.8-.7-1.9-.4-.1-.7-.1-1.1-.1-.2 0-.4-.2-.4-.4 0-.4.5-.4.7-.4h4.5c.2 0 .6 0 .6.4 0 .2-.2.4-.5.4h-.5c-.6.1-.7.4-.7 1.8l-.1 13.4c0 1.5 0 1.8-.4 1.8zM52.6 6.5l.4.4c.7.8 3.6 3.8 6.1 6.5 2.5 2.6 5.9 6 6.2 6.2.5.5 1 1 1.6 1.3 0-.5.1-1 0-1.4L67 6.1c0-1.3 0-2 1-2.2h.1-3.9c.2 0 .4 0 .6.1.9.2 1 1 1.1 2.3l.3 12-.4-.4c-.3-.3-.7-.8-1.4-1.4-1.2-1.2-2.7-2.9-4.3-4.5-2.5-2.5-4.8-5-6.2-6.5-.7-.7-1.1-1.2-1.3-1.3V4c-.2-.2-.5-.5-.7-.5 0 0-.1.1-.1 1v13.1c0 2.1-.1 2.9-.8 3.1-.2.1-.3.1-.5.1.6 0 1.2 0 1.6-.1h.8c.4 0 1 .1 1.8.1-.2 0-.4-.1-.7-.1-.9-.2-1-1-1.1-2.8l-.3-11.4z"/>
  <path id="Path_14" class="st0" d="M90 12c.1 0 .1-.1.1-.2l-2.6-7.3c-.1-.4-.3-.4-.4 0l-2.4 7.3c-.1.1 0 .2.1.2H90zM87.2 1.3c.3-.9.4-1.1.6-1.1s.3.1.6 1c.4 1 4.6 12.2 6.3 16.3 1 2.4 1.8 2.8 2.3 3 .3.1.7.2 1.1.2.2 0 .3 0 .3.2s-.2.2-.5.2c-.4 0-2.4 0-4.2-.1-.5 0-.8 0-.8-.2 0-.1.1-.2.2-.2.2-.1.3-.3.2-.7l-2.5-6.6c0-.1-.1-.2-.2-.2h-5.8c-.1 0-.2.1-.3.2L82.7 18c-.2.6-.4 1.2-.4 1.8 0 .5.6.8 1 .8h.3c.2 0 .3.1.3.2 0 .2-.2.2-.4.2-.6 0-1.8-.1-2.1-.1s-1.8.1-3 .1c-.4 0-.5-.1-.5-.2s.1-.2.2-.2c.2 0 .6 0 .8-.1 1.2-.2 1.8-1.2 2.3-2.5l6-16.7z"/>
  <path id="Path_15" class="st0" d="M97.8 21.2c-1.5 0-3 0-4.2-.1h-.1c-.5 0-.9 0-.9-.4 0-.2.1-.4.3-.4v-.1-.4l-2.5-6.6h-5.8l-.1.1-1.6 4.8c-.2.6-.3 1.1-.4 1.7 0 .4.5.6.8.6h.3c.4 0 .5.3.5.4 0 .2-.1.4-.6.4-.4 0-1 0-1.4-.1H80.8c-.6 0-1.6.1-2.4.1-.2 0-.7 0-.7-.4 0-.2.2-.4.4-.4s.5 0 .8-.1c1.1-.1 1.6-1 2.1-2.4l6-16.7c.3-.9.5-1.2.8-1.2s.5.2.8 1.1c.1.3.6 1.4 1.2 3 1.5 3.9 4 10.3 5.1 13.2.9 2.2 1.6 2.7 2.2 2.9.3.1.7.2 1 .2.4 0 .5.2.5.4-.1.1-.2.4-.8.4zm-4.7-.5h.4c1.1 0 2.5.1 4 .1-.2 0-.4-.1-.6-.1-.7-.2-1.5-.7-2.4-3.1-1.2-2.9-3.6-9.4-5.1-13.2-.6-1.6-1-2.7-1.2-3-.1-.3-.2-.6-.4-.8-.2.3-.3.6-.4.9l-6.1 16.8c-.4 1.2-1 2.5-2.4 2.7h-.2c.8 0 1.5 0 2.1-.1H83c-.5-.1-.8-.5-.9-.9 0-.6.2-1.3.4-1.9l1.6-4.8c.1-.2.2-.4.5-.4h5.8c.2 0 .4.1.4.3l2.5 6.7c.1.2.1.5 0 .7 0 0-.1 0-.2.1zM90 12.2h-5.2c-.1 0-.2 0-.3-.1-.1-.1-.1-.2 0-.3l2.4-7.3c0-.1.1-.4.4-.4s.4.3.4.4l2.6 7.3v.3c-.1.1-.2.2-.3.1zm-5-.4h4.9l-2.5-7.2-2.4 7.2z"/>
  <path id="Path_16" class="st0" d="M105 14.3c0 2.2 0 4 .1 5 .1.7.2 1.1.9 1.2.4.1.7.1 1.1.1.1 0 .2.1.2.1 0 .1-.1.2-.4.2-1.3 0-2.8-.1-2.9-.1-.1 0-1.8.1-2.5.1-.3 0-.4-.1-.4-.2s.1-.2.2-.2c.2 0 .5 0 .7-.1.5-.1.6-.6.7-1.2.1-.9.1-2.8.1-5V4.7l-3.4.1c-1.5 0-2.1.2-2.4.7-.2.2-.3.5-.4.7-.1.2-.1.2-.2.2s-.2-.1-.2-.2c0-.2.5-2.3.5-2.5.1-.1.2-.4.2-.4.3.1.7.2 1.1.3.7.1 1.6.1 1.9.1h9c.6 0 1.1 0 1.7-.1.4-.1.6-.1.7-.1s.1.1.1.3c0 .7-.1 2.3-.1 2.6 0 .2-.1.3-.2.3s-.2-.1-.2-.4v-.2c-.1-.7-.6-1.2-2.9-1.3l-3-.1v9.6z"/>
  <path id="Path_17" class="st0" d="M106.9 21.2c-1 0-2.1 0-2.6-.1h-.3-.4c-.6 0-1.6.1-2.1.1-.4 0-.6-.1-.6-.4 0-.2.2-.4.4-.4s.4 0 .7-.1c.3-.1.5-.3.5-1.1.1-.9.1-2.7.1-4.9V4.9l-3.2.1c-1.4 0-1.9.2-2.2.6l-.3.6c0 .1 0 .1-.1.2 0 .2-.2.3-.4.3s-.4-.2-.4-.4c.1-.6.2-1.2.4-1.8.1-.4.1-.7.2-.7v-.1c.1-.3.2-.5.4-.5.1 0 .2 0 .3.1.2.1.5.2.8.2.7.1 1.6.1 1.8.1h9c.6 0 1.1 0 1.7-.1.1 0 .3 0 .4-.1h.3c.3 0 .3.3.3.5 0 .4 0 1.2-.1 1.8v.8c0 .2-.2.5-.4.5-.3 0-.4-.4-.4-.6v-.2c-.1-.5-.4-1-2.7-1.1l-2.8-.1v9.4c0 2.2 0 4 .1 4.9.1.7.2.9.7 1 .3.1.7.1 1 .1.2 0 .4.1.4.3v.1c.1.1.1.4-.5.4zm-2.9-.5h.3c.5 0 1.4.1 2.3.1-.2 0-.4 0-.6-.1-.9-.1-1-.7-1.1-1.4-.1-1-.1-2.7-.1-5V4.5l3.2.1c2.1 0 2.9.5 3.1 1.4V5.5c0-.6.1-1.4.1-1.8h-.2c-.1 0-.2 0-.4.1-.6.1-1.2.1-1.7.1h-9c-.3 0-1.2 0-1.9-.1-.3 0-.6-.1-.9-.2H97v.2c0 .1-.1.4-.2.8-.1.5-.3 1.3-.3 1.6 0-.1 0-.1.1-.1l.3-.6c.4-.7 1.2-.8 2.6-.8l3.6-.1v9.8c0 2.3 0 4-.1 5-.1.6-.2 1.3-.9 1.4h-.2c.5 0 1.3 0 1.7-.1h.4z"/>
  <path id="Path_18" class="st0" d="M130.8 14.3c0 2.2 0 4 .1 5 .1.7.1 1.1.9 1.2.3.1.7.1 1.1.1.1 0 .2.1.2.2s-.1.2-.4.2c-1.3 0-2.8-.1-2.9-.1-.1 0-1.6.1-2.3.1-.3 0-.4-.1-.4-.2s.1-.2.2-.2c.2 0 .5 0 .7-.1.5-.1.6-.6.6-1.2.1-.9.1-2.7.1-4.9v-2.3c0-.1-.1-.1-.1-.1h-9.9c-.1 0-.1 0-.1.1v2.3c0 2.2 0 4 .1 4.9.1.7.2 1.1.9 1.2.4.1.7.1 1.1.1.1 0 .2.1.2.2s-.1.2-.4.2c-1.3 0-2.8-.1-2.9-.1-.1 0-1.6.1-2.4.1-.2 0-.4-.1-.4-.2s.1-.2.2-.2c.2 0 .5 0 .7-.1.5-.1.5-.5.6-1.2.1-1.7.2-3.3.1-5v-4c0-3.6 0-4.2-.1-4.9-.1-.8-.2-1.2-1-1.3-.3-.1-.6-.1-.9-.1-.1 0-.2-.1-.2-.2s.1-.2.4-.2c1.1 0 2.6.1 2.7.1.1 0 1.6-.1 2.3-.1.3 0 .4.1.4.2s-.1.2-.2.2c-.2 0-.4 0-.6.1-.6.1-.8.5-.8 1.3v5.5c0 .1.1.1.1.1h9.9c.1 0 .1 0 .1-.1v-.5c0-3.6 0-4.3-.1-5-.1-.8-.2-1.2-.9-1.3-.3 0-.5-.1-.8-.1-.1 0-.2-.1-.2-.2s.1-.2.4-.2c1.1 0 2.6.1 2.7.1.1 0 1.6-.1 2.3-.1.3 0 .4.1.4.2s-.1.2-.2.2c-.2 0-.4 0-.6.1-.6.1-.8.5-.8 1.3-.1.7-.1 1.4-.1 4.9l.2 4z"/>
  <path id="Path_19" class="st0" d="M132.6 21.2c-1 0-2.1 0-2.6-.1h-.3-.4c-.5 0-1.5.1-2 .1-.4 0-.6-.1-.6-.4 0-.2.2-.4.4-.4s.4 0 .7-.1c.3-.1.4-.3.5-1.1.1-.9.1-2.7.1-4.9v-2.2h-9.8v2.2c0 2.2 0 4 .1 4.9.1.7.2 1 .7 1 .3.1.7.1 1.1.1.2 0 .4.2.4.4 0 .1 0 .4-.6.4-1 0-2.2 0-2.7-.1h-.3-.4c-.5 0-1.4.1-1.9.1s-.6-.2-.6-.4.2-.4.4-.4.5 0 .7-.1c.3-.1.3-.3.5-1v-.1c.1-1.6.2-3.3.1-4.9v-4c0-3.6 0-4.2-.1-4.9-.1-.8-.2-1-.8-1.1-.3 0-.5 0-.8-.1-.2 0-.4-.2-.4-.4 0-.3.2-.4.6-.4H119.8c.4 0 .6.1.6.4 0 .2-.2.4-.4.4h-.6c-.5.1-.6.3-.7 1.1v5.4h9.8v-.4c0-3.6 0-4.3-.1-5-.1-.8-.2-1-.8-1.1-.3 0-.5 0-.8-.1-.2 0-.4-.2-.4-.4 0-.3.2-.4.6-.4h5c.4 0 .6.1.6.4 0 .2-.2.4-.4.4s-.4 0-.6.1c-.5.1-.6.3-.6 1.1-.1.7-.1 1.4-.1 4.9v4c0 1.9 0 3.9.1 4.9.1.7.1 1 .7 1 .3.1.7.1 1 .1.2 0 .4.2.4.4.1.4.1.7-.5.7zm-2.9-.5h.3c.5 0 1.4.1 2.3.1-.2 0-.5 0-.6-.1-.9-.1-.9-.7-1-1.4-.1-.8-.1-2.3-.1-5v-4c0-3.6 0-4.2.1-5 .1-.9.2-1.3 1-1.5h.1H127.6h.2c1 .1 1.1.7 1.1 1.5 0 .7.1 1.4.1 5v.5c0 .2-.1.3-.3.3h-10c-.2 0-.3-.1-.3-.3v-.6-5c.1-.9.2-1.3 1-1.5h.1-4.4.2c1 .1 1.1.7 1.1 1.5s.1 1.4.1 5v4.1c0 1.7 0 3.3-.1 5v.1c-.1.7-.2 1.2-.8 1.3-.1 0-.3.1-.4.1.5 0 1.3 0 1.7-.1h.7c.4 0 1.4.1 2.4.1-.2 0-.4 0-.6-.1-.9-.1-1-.8-1-1.4-.1-1-.1-2.7-.1-4.9v-2.3c0-.2.1-.3.3-.3h9.9c.2 0 .3.1.3.3v2.4c0 2.2 0 3.9-.1 4.9-.1.6-.2 1.3-.8 1.4-.1 0-.3.1-.4.1.5 0 1.3 0 1.8-.1.2-.1.4-.1.4-.1z"/>
  <path id="Path_20" class="st0" d="M141.8 15c.1-.8-.1-1.6-.5-2.3-.2-.4-3.4-5.4-4.2-6.7-.4-.7-.9-1.2-1.6-1.7-.3-.2-.6-.3-1-.3-.1 0-.2-.1-.2-.2s.1-.2.3-.2c.5 0 2.2.1 2.3.1.2 0 1.1-.1 2-.1.3 0 .3.1.3.2s-.2.2-.4.2c-.2.1-.3.2-.3.4 0 .3.1.6.3.9l4.3 7.1c.5-1 3.5-5.9 3.9-6.6.2-.4.4-.8.4-1.2 0-.3-.1-.5-.4-.6-.2-.1-.4-.2-.4-.3 0-.1.1-.1.4-.1.6 0 1.5.1 1.6.1.2 0 1.9-.1 2.3-.1.2 0 .3.1.3.1 0 .1-.2.3-.3.2-.4 0-.8.1-1.1.3-.5.3-.9.7-1.2 1.1-.8.9-4.1 6.3-4.6 7.3-.3.7-.4 1.5-.3 2.3v2c0 .4 0 1.3.1 2.3.1.7.2 1.1.9 1.2.4.1.7.1 1.1.1.1 0 .2.1.2.2s-.1.2-.4.2c-1.3 0-2.9-.1-3-.1-.1 0-1.6.1-2.3.1-.3 0-.4-.1-.4-.2s.1-.2.2-.2c.2 0 .5 0 .7-.1.5-.1.6-.5.7-1.2.1-.9.1-1.9.1-2.3l.2-1.9z"/>
  <path id="Path_21" class="st0" d="M145.9 21.2c-1 0-2.1 0-2.7-.1h-.3-.4c-.5 0-1.4.1-2 .1-.4 0-.6-.1-.6-.4 0-.2.2-.4.4-.4s.4 0 .7-.1c.3-.1.5-.3.5-1 .1-.9.1-1.9.1-2.3v-2c.1-.8-.1-1.6-.5-2.2-.2-.4-3.4-5.4-4.2-6.6-.4-.6-.9-1.2-1.5-1.6-.3-.2-.6-.3-.9-.3-.2 0-.4-.2-.4-.4 0-.1.1-.4.5-.4h4.3c.1 0 .5 0 .5.4 0 .2-.3.3-.5.4-.2.1-.2.1-.2.2 0 .3.1.5.3.7v.1l4.1 6.8c.5-.9 1.8-3 2.7-4.6.5-.8.9-1.4 1-1.7.2-.3.3-.7.4-1.1 0-.3-.1-.4-.2-.4-.3-.1-.5-.3-.5-.5 0-.1.1-.3.6-.3h3.9c.2 0 .5.1.5.3 0 .3-.2.5-.5.4-.4 0-.7.1-1 .3-.4.3-.8.7-1.1 1.1-.8.9-4.1 6.3-4.6 7.2-.3.6-.3 1.2-.3 1.8V17c0 .4 0 1.3.1 2.3.1.7.2.9.7 1 .3.1.7.1 1 .1.2 0 .4.2.4.4.3.2.1.4-.3.4zm-3-.5h.3c.5 0 1.5.1 2.4.1-.2 0-.5 0-.6-.1-.9-.1-1-.8-1.1-1.4-.1-1-.1-1.9-.1-2.3v-2-.4c-.1-.7 0-1.4.3-2 .5-1 3.9-6.4 4.6-7.3.3-.5.8-.9 1.2-1.2.3-.1.5-.2.8-.3h-3.5c.4.1.6.4.5.8 0 .5-.2.9-.4 1.3-.1.2-.5.9-1 1.7-1 1.7-2.5 4.3-2.9 4.9l-.2.3-4.5-7.5c-.2-.3-.3-.6-.3-.9 0-.3.2-.5.4-.6H136.9h-2.1c.3.1.6.2.8.3.6.5 1.2 1.1 1.6 1.7.8 1.2 4 6.3 4.2 6.7.4.7.6 1.6.5 2.4v2c0 .4 0 1.4-.1 2.3 0 .6-.2 1.3-.9 1.4-.1 0-.2.1-.4.1.5 0 1.3 0 1.8-.1.4.1.5.1.6.1z"/>
  <path id="Path_22" class="st0" d="M155.7 17.8c.1 1.9.3 2.5.9 2.6.4.1.8.1 1.2.1.1 0 .2.1.2.2s-.2.2-.4.2c-1.4 0-2.3-.1-2.5-.1s-1.2.1-2.3.1c-.2 0-.4 0-.4-.2 0-.1.1-.2.2-.2.3 0 .7 0 1-.1.6-.2.7-.8.7-2.9v-13c0-.9.1-1.2.3-1.2.3 0 .7.5.9.7.4.4 3.8 4 7.5 7.8 2.3 2.4 4.9 5.2 5.6 5.9l-.2-11.5c0-1.5-.2-2-.9-2.1-.5-.1-.9-.1-1.3-.1-.2 0-.2-.1-.2-.2s.2-.2.5-.2c1.1 0 2.2.1 2.5.1s1.1-.1 2-.1c.2 0 .4 0 .4.2 0 .1-.1.2-.3.2-.2 0-.4 0-.6.1-.8.2-.8.6-.8 2l-.1 13.4c0 1.5 0 1.6-.2 1.6s-.5-.2-1.8-1.4c-.2-.2-3.7-3.6-6.2-6.2-2.8-2.9-5.4-5.7-6.1-6.5l.4 10.8z"/>
  <path id="Path_23" class="st0" d="M169.5 21.3c-.3 0-.5-.2-1.9-1.5l-6.2-6.2c-2.4-2.5-4.7-5-5.8-6.1l.3 10.3c.1 1.9.3 2.3.8 2.4.4.1.8.1 1.1.1.2 0 .4.2.4.4s-.1.4-.6.4c-1 0-1.7 0-2.2-.1h-.3-.4c-.4 0-1.1.1-1.9.1-.2 0-.6 0-.6-.4 0-.2.2-.4.4-.4.3 0 .6 0 .9-.1.4-.1.5-.6.5-2.7v-13c0-.7.1-1.4.5-1.4.3 0 .6.3 1 .6l.1.1 1.3 1.3c1.4 1.5 3.8 4 6.2 6.5 1.5 1.6 3.1 3.3 4.3 4.5.4.4.7.8 1 1l-.2-11c0-1.6-.2-1.8-.7-1.9-.4-.1-.7-.1-1.1-.1-.2 0-.4-.2-.4-.4 0-.4.5-.4.7-.4h4.5c.2 0 .6 0 .6.4 0 .2-.2.4-.5.4h-.5c-.6.1-.7.4-.7 1.8l-.1 13.4c-.1 1.8-.1 2-.5 2zM155.2 6.5l.4.4c.7.8 3.4 3.7 6.1 6.5 2.5 2.7 5.9 6 6.2 6.2.5.5 1 1 1.6 1.3 0-.5.1-1 0-1.4l.1-13.4c0-1.3 0-2 1-2.2h.1-3.9c.2 0 .4 0 .6.1 1 .2 1 1 1.1 2.3l.3 12-.4-.4c-.3-.3-.7-.8-1.3-1.4-1.2-1.2-2.8-2.9-4.3-4.5-2.5-2.5-4.8-5-6.2-6.5-.7-.7-1.1-1.2-1.3-1.3l-.1-.2c-.2-.2-.5-.5-.7-.5 0 0-.1.1-.1 1v13.1c0 2.1-.1 2.9-.8 3.1-.2.1-.4.1-.5.1.6 0 1.2 0 1.6-.1h.8c.4 0 1 .1 1.8.1-.2 0-.4-.1-.7-.1-.9-.2-1-1-1.1-2.8l-.3-11.4z"/>
  <path id="Path_24" class="st0" d="M184.4 18.4c-2.2-2-3.4-4.9-3.2-7.9 0-2.7 1.1-5.4 3-7.3 1.6-1.6 4.1-2.9 8.2-2.9 1.3 0 2.6.1 3.9.3.9.2 1.8.3 2.7.4.3 0 .3.1.3.3 0 .2-.1.5-.1 1.5-.1.9-.1 2.4-.1 2.8s-.1.6-.2.6c-.2 0-.2-.2-.2-.6 0-1-.4-2-1.1-2.7-1.6-1.1-3.5-1.6-5.4-1.5-3.6 0-5.2 1-6.2 2-2 1.9-2.4 4.3-2.4 7-.1 5.4 4.2 9.7 9.6 9.8h.1c2 0 3.6-.2 4.7-1.3.5-.7.8-1.4 1-2.3.1-.3.1-.4.3-.4.1 0 .2.2.2.4-.1 1.2-.3 2.3-.6 3.4-.2.5-.2.6-.7.8-1.6.5-3.2.7-4.8.6-4.1-.1-6.8-1.1-9-3"/>
  <path id="Path_25" class="st0" d="M193.3 21.5c-3.9 0-6.8-.9-9-3s-3.5-5-3.3-8.1c0-2.8 1.1-5.5 3.1-7.5s4.7-2.9 8.3-2.9c1.3 0 2.6.1 3.9.3h.1c.9.2 1.7.3 2.6.4.4 0 .5.2.5.5v.4c0 .2-.1.6-.1 1.2 0 .5 0 1.2-.1 1.8v1c0 .3 0 .8-.4.8s-.4-.5-.4-.8c0-1-.4-1.9-1.1-2.6-1.5-1-3.4-1.6-5.2-1.5-2.7 0-4.7.6-6 1.9-2.1 2-2.4 4.6-2.4 6.9-.1 5.2 4.1 9.5 9.3 9.6h.2c1.7 0 3.4-.2 4.5-1.3.5-.6.8-1.4.9-2.1 0-.2.1-.6.5-.6.1 0 .4 0 .4.6-.1 1.2-.3 2.3-.6 3.5-.1.4-.4.8-.8.9-1.6.4-3.2.6-4.9.6zm-.9-21c-3.5 0-6.1.9-8 2.8-1.9 1.9-2.9 4.5-2.9 7.2-.1 2.9 1 5.8 3.2 7.8s4.9 2.8 8.7 2.8c1.6 0 3.2-.2 4.8-.6.4-.2.4-.2.6-.6.3-1.1.5-2.2.6-3.4v-.1.2c-.2.9-.5 1.7-1 2.4-1.2 1.2-3 1.4-4.8 1.4-5.4 0-9.9-4.4-9.9-9.8v-.2c0-2.4.3-5.1 2.5-7.2 1.4-1.4 3.5-2 6.3-2 2-.1 3.9.5 5.5 1.6.8.8 1.2 1.8 1.2 2.9v-1c0-.6 0-1.3.1-1.8 0-.6.1-.9.1-1.2v-.3-.1h-.2c-.9-.1-1.8-.2-2.7-.4h-.1c-1.4-.3-2.7-.4-4-.4z"/>
  <path id="Path_26" class="st0" d="M212 20.3c2.1 0 6.4-1.1 6.4-7.7 0-5.5-3.3-8.3-7.1-8.3-3.9 0-6.8 2.5-6.8 7.4 0 5.2 3.2 8.6 7.5 8.6m-.5-17c5.3 0 9.3 3.2 9.3 8.6.1 5-3.9 9.2-9 9.3h-.5c-4.8.3-9-3.4-9.2-8.3v-.7c.1-5 4.2-9 9.2-8.9h.2"/>
  <path id="Path_27" class="st0" d="M211.3 21.4c-6.5 0-9.4-4.8-9.4-9.2.1-5.1 4.3-9.2 9.4-9.1h.2c5.7 0 9.5 3.5 9.5 8.8.1 5.2-4.1 9.4-9.3 9.5h-.4zm.2-17.9c-3.8 0-9.2 2.7-9.2 8.7 0 4.2 2.8 8.8 9 8.8 4.9.2 9.1-3.6 9.3-8.5v-.6c0-5-3.7-8.4-9.1-8.4zm.5 17c-4.5 0-7.7-3.6-7.7-8.8 0-4.8 2.6-7.6 7-7.6 5 0 7.3 4.4 7.3 8.5 0 7.5-5.5 7.9-6.6 7.9zm-.7-16.1c-4.1 0-6.6 2.7-6.6 7.2 0 5 2.9 8.4 7.3 8.4 5.9 0 6.2-6.3 6.2-7.5 0-5.6-3.5-8.1-6.9-8.1z"/>
  <path id="Path_28" class="st0" d="M226.8 14.3c0 3.4.1 4.7.5 5.1.4.4 1.3.5 3.1.5 1.2 0 2.3 0 2.8-.7.3-.4.5-.8.6-1.3 0-.2.1-.3.2-.3s.2.1.2.3c-.1.8-.2 1.5-.3 2.3-.2.5-.2.6-1.5.6-1.7 0-3 0-4.1-.1-1.1 0-1.9-.1-2.6-.1h-1c-.5 0-1 .1-1.4.1-.2 0-.4-.1-.4-.2s.1-.2.2-.2c.2 0 .5 0 .7-.1.5-.1.5-.5.6-1.2.1-1.6.2-3.3.1-4.9v-4c0-3.5 0-4.2-.1-4.9-.1-.8-.2-1.2-1-1.3-.3 0-.5-.1-.8-.1-.1 0-.2-.1-.2-.2s.1-.2.4-.2c1.1 0 2.5.1 2.7.1.1 0 1.9-.1 2.6-.1.2 0 .4.1.4.2s-.1.2-.2.2c-.2 0-.5 0-.8.1-.7.1-.8.5-.9 1.3v4.9l.2 4.2z"/>
  <path id="Path_29" class="st0" d="M232.4 21.2c-1.7 0-3 0-4.1-.1h-3.5c-.5 0-1 .1-1.4.1-.5 0-.6-.2-.6-.4s.2-.4.4-.4.5 0 .7-.1c.3-.1.3-.3.5-1v-.1c.1-1.6.2-3.3.1-4.9v-4c0-3.5 0-4.2-.1-4.9-.1-.8-.2-1-.8-1.1-.3 0-.5 0-.8-.1-.2 0-.4-.2-.4-.4 0-.3.2-.4.6-.4H228.2c.5 0 .6.2.6.4s-.2.4-.4.4-.5 0-.8.1c-.5.1-.6.3-.7 1.1v9c0 2.9 0 4.6.4 5 .3.3 1.3.5 3 .5 1.3 0 2.2 0 2.7-.6.3-.3.4-.8.5-1.2 0-.3.2-.5.4-.5.1 0 .4.1.4.6-.1.8-.2 1.6-.4 2.3-.1.6-.3.7-1.5.7zm-6.7-.6H228.3c1.1.1 2.4.1 4.1.1 1.2 0 1.2 0 1.3-.5.2-.7.3-1.5.3-2.2-.1.5-.3 1-.6 1.4-.6.8-1.8.8-3 .8-1.9 0-2.9-.2-3.3-.6-.5-.4-.5-1.6-.5-5.3v-4.1-4.9c.1-.9.2-1.3 1-1.5h-4.1.2c1 .1 1.1.7 1.1 1.5s.1 1.4.1 4.9v4c0 1.7 0 3.3-.1 5v.1c-.1.7-.2 1.2-.8 1.3-.1 0-.2 0-.4.1.3 0 .8 0 1.2-.1h.9z"/>
  <path id="Path_30" class="st0" d="M240.4 14.3c0 3.4.1 4.7.5 5.1.4.4 1.3.5 3.1.5 1.2 0 2.3 0 2.8-.7.3-.4.5-.8.6-1.3 0-.2.1-.3.2-.3s.2.1.2.3c-.1.8-.2 1.5-.3 2.3-.2.5-.2.6-1.5.6-1.7 0-3 0-4.1-.1-1.1 0-1.9-.1-2.6-.1h-1c-.5 0-1 .1-1.4.1-.2 0-.4-.1-.4-.2s.1-.2.2-.2c.2 0 .5 0 .7-.1.5-.1.5-.5.6-1.2.1-1.6.2-3.3.1-4.9v-4c0-3.5 0-4.2-.1-4.9-.1-.8-.2-1.2-1-1.3-.3 0-.5-.1-.8-.1-.1 0-.2-.1-.2-.2s.1-.2.4-.2c1.1 0 2.5.1 2.7.1.1 0 1.9-.1 2.6-.1.2 0 .4.1.4.2s-.1.2-.2.2c-.2 0-.5 0-.8.1-.7.1-.8.5-.9 1.3v4.9l.2 4.2z"/>
  <path id="Path_31" class="st0" d="M245.9 21.2c-1.7 0-3 0-4.1-.1h-3.5c-.5 0-1 .1-1.4.1-.5 0-.6-.2-.6-.4s.2-.4.4-.4.5 0 .7-.1c.3-.1.3-.3.5-1v-.1c.1-1.6.2-3.3.1-4.9v-4c0-3.5 0-4.2-.1-4.9-.1-.8-.2-1-.8-1.1-.3 0-.5 0-.8-.1-.2 0-.4-.2-.4-.4 0-.3.2-.4.6-.4H241.7c.5 0 .6.2.6.4s-.2.4-.4.4-.5 0-.8.1c-.5.1-.6.3-.7 1.1v9c0 2.9 0 4.6.4 5 .3.3 1.3.5 3 .5 1.3 0 2.2 0 2.7-.6.3-.3.5-.8.5-1.2 0-.3.2-.5.4-.5s.4.1.4.6c-.1.8-.2 1.6-.4 2.3 0 .6-.2.7-1.5.7zm-6.7-.6h2.5c1.1.1 2.5.1 4.1.1 1.2 0 1.2 0 1.3-.5.2-.7.3-1.5.3-2.2-.1.5-.3 1-.6 1.4-.6.8-1.8.8-3 .8-1.9 0-2.9-.2-3.3-.6-.5-.4-.5-1.6-.5-5.3v-4.1-4.9c.1-.9.2-1.3 1-1.5h-4.1.2c1 .1 1.1.7 1.1 1.5s.1 1.4.1 4.9v4c0 1.7 0 3.3-.1 5v.1c-.1.7-.2 1.2-.8 1.3-.1 0-.2 0-.4.1.3 0 .8 0 1.2-.1h1z"/>
  <path id="Path_32" class="st0" d="M252.6 10.3c0-3.5 0-4.2-.1-4.9-.1-.8-.2-1.2-1-1.3-.3 0-.5-.1-.8-.1-.1 0-.2-.1-.2-.2s.1-.2.4-.2c1.1 0 2.6.1 2.7.1h5.6c.5 0 .9-.1 1.1-.1.1 0 .2-.1.3-.1.1 0 .1.1.1.2 0 .2-.1.4-.2 1.1 0 .2-.1 1.2-.1 1.5 0 .1-.1.2-.2.2s-.2-.1-.2-.3c0-.3 0-.5-.1-.8-.2-.4-.4-.5-1.7-.7-.4-.1-3.1-.1-3.4-.1-.1 0-.1.1-.1.2V11c0 .2 0 .2.1.2.3 0 3.4 0 3.9-.1.6-.1.9-.1 1.2-.3l.3-.3s.1.1.1.2c-.1.4-.1.8-.2 1.3s-.1 1.3-.1 1.5c0 .2-.1.4-.2.4s-.2-.1-.2-.2c0-.3 0-.5-.1-.8-.1-.3-.3-.6-1.2-.7-.6-.1-3.2-.1-3.6-.1-.1 0-.2.1-.2.2v5.8c.1 1.5.5 1.8 2.8 1.8.8 0 1.6 0 2.4-.2.6-.3 1.1-.9 1.1-1.6.1-.3.1-.3.2-.3s.2.2.2.3c-.1.7-.2 1.5-.3 2.2-.2.6-.4.6-1.3.6-1.8 0-3.1-.1-4.1-.1-1-.1-1.6-.1-2-.1h-1c-.5 0-1 .1-1.4.1-.2 0-.4-.1-.4-.2s.1-.2.2-.2c.2 0 .5-.1.7-.1.5-.1.5-.5.6-1.2.1-1.6.2-3.3.1-4.9l.3-3.9z"/>
  <path id="Path_33" class="st0" d="M259.7 21.2c-1.5 0-2.6 0-3.5-.1h-.6c-1-.1-1.6-.1-2-.1h-1c-.6 0-1.1.1-1.4.1-.5 0-.6-.2-.6-.4s.2-.4.4-.4c.1 0 .3 0 .4-.1h.3c.3 0 .3-.3.4-1v-.1c.1-1.6.2-3.3.1-4.9v-4c0-3.5 0-4.2-.1-4.9-.1-.8-.2-1-.8-1.1-.3 0-.5 0-.8-.1-.2 0-.4-.2-.4-.4 0-.3.2-.4.6-.4h8.5c.3 0 .7-.1.9-.1H260.4c.1 0 .2-.1.3-.1.1 0 .3.1.3.4 0 .1 0 .2-.1.3-.1.3-.1.5-.1.8v.5c0 .4-.1.9-.1 1 0 .2-.2.4-.4.4-.1 0-.4 0-.4-.5 0-.2 0-.5-.1-.7-.1-.3-.2-.4-1.5-.6-.4 0-2.8-.1-3.3-.1v6.3c.7 0 3.4 0 3.9-.1s.8-.1 1-.3l.1-.1c.1-.2.2-.3.4-.3s.3.2.3.3v.3c-.1.3-.1.7-.1 1-.1.5-.1 1.3-.1 1.5 0 .4-.2.6-.4.6s-.4-.2-.4-.4 0-.5-.1-.7c0-.2-.1-.5-1-.6-.6-.1-2.9-.1-3.5-.1v5.8c0 1.3.3 1.6 2.6 1.6.8 0 1.5 0 2.3-.2.5-.2.8-.5.9-1.4 0-.2.1-.5.4-.5.1 0 .4.1.4.6-.1.8-.2 1.5-.3 2.3-.3 1-.7 1-1.7 1zm-6-.6c.3 0 1 0 2 .1h.6c.9 0 2.1.1 3.5.1 1 0 1 0 1.1-.4.1-.7.2-1.3.3-2 0 .7-.5 1.4-1.2 1.6-.8.2-1.6.3-2.4.3-2.3 0-3-.3-3-2v-2.9-2.9c0-.2.1-.4.3-.4.3 0 2.9 0 3.6.1.9.1 1.3.3 1.4.9 0 .1.1.2.1.4 0-.3.1-.9.1-1.3s.1-.7.2-1.1l-.1.1c-.4.3-.8.4-1.2.4-.6.1-3.2.1-4 .1-.3 0-.3-.3-.3-.4V4.9c0-.4.2-.4.3-.4.2 0 3 0 3.4.1 1.3.2 1.6.3 1.9.8.1.3.2.6.2.9 0-.2.1-.6.1-1v-.5c0-.3.1-.6.1-.9v-.2c-.1 0-.1 0-.2.1h-.2c-.3.1-.6.1-.9.1h-8 .2c1 .1 1.1.7 1.1 1.5s.1 1.4.1 4.9v4c0 1.7 0 3.3-.1 5v.1c-.1.6-.2 1.2-.8 1.3h-.5c.3 0 .7 0 1.2-.1s1 0 1.1 0z"/>
  <path id="Path_34" class="st0" d="M277.9 15.1c0-1.9-.1-2.1-1-2.3-.3 0-.5-.1-.8-.1-.1 0-.2-.1-.2-.2 0-.2.1-.2.4-.2 1.1 0 2.7.1 2.8.1.1 0 1.6-.1 2.3-.1.3 0 .4 0 .4.2 0 .1-.1.2-.2.2-.2 0-.4 0-.6.1-.6.1-.8.5-.9 1.3V19c0 1 0 1.1-.3 1.2-4.2 1.8-9.1 1.2-12.8-1.4-1.8-1.7-2.8-4-2.8-6.5-.1-3 1.4-5.9 3.9-7.5 1.9-1.1 4.1-1.6 6.3-1.4 1.2 0 2.4.1 3.6.4.6.1 1.3.2 1.9.2.2 0 .3.1.3.2 0 .3-.1.9-.1 3.2 0 .4-.1.5-.3.5-.1 0-.2-.1-.2-.3-.1-.5-.2-1-.5-1.5-.6-.9-2.4-1.8-5.4-1.8-1.8-.1-3.5.4-4.9 1.5-1.6 1.5-2.5 3.6-2.3 5.7 0 2.3.9 4.6 2.5 6.3 1.6 1.6 3.8 2.4 6 2.4.9 0 1.7-.1 2.5-.4.3-.2.5-.3.5-.7l-.1-4z"/>
  <path id="Path_35" class="st0" d="M274.7 21.4c-2.9.1-5.7-.7-7.9-2.5-1.9-1.7-2.9-4.1-2.9-6.6-.1-3.1 1.4-6 4-7.7 2-1.1 4.2-1.6 6.4-1.5 1.2 0 2.5.1 3.7.4.6.1 1.2.2 1.9.2.4 0 .5.2.5.4v.4c-.1.9-.1 1.9-.1 2.8 0 .6-.3.7-.5.7-.4 0-.4-.4-.4-.6-.1-.5-.2-1-.5-1.4-.5-.8-2.2-1.7-5.3-1.7-1.7-.1-3.4.4-4.8 1.4-1.6 1.4-2.4 3.5-2.3 5.6 0 2.3.9 4.5 2.4 6.2 1.6 1.5 3.7 2.4 5.9 2.3.8.1 1.7-.1 2.5-.4.3-.2.4-.2.4-.5v-4c0-1.9-.1-2-.9-2.1h-.8c-.2 0-.4-.2-.4-.4 0-.4.4-.4.6-.4H281.4c.2 0 .6 0 .6.4 0 .2-.2.4-.4.4h-.5c-.5.1-.7.3-.7 1.1V19c0 1 0 1.2-.4 1.4-1.8.7-3.6 1-5.3 1zm-.4-17.9c-2.1-.1-4.3.4-6.2 1.4-2.5 1.6-3.9 4.4-3.8 7.3 0 2.4 1 4.7 2.7 6.3 2.2 1.7 4.9 2.5 7.7 2.4 1.7 0 3.4-.3 4.9-1 .2-.1.2-.1.2-1.1v-2.5-2.4c.1-.8.2-1.3 1.1-1.5h.1-4.3.2c1.2.2 1.2.7 1.2 2.5V19c0 .4-.2.8-.6.9-.8.3-1.7.5-2.6.5-2.3 0-4.5-.8-6.2-2.4-1.7-1.7-2.6-4.1-2.6-6.5-.1-2.2.8-4.4 2.4-5.9 1.5-1.1 3.2-1.6 5.1-1.5 3.2 0 5 1 5.6 1.9.3.5.5 1 .6 1.6v-.1c0-1 0-1.9.1-2.9v-.3h-.1c-.7 0-1.3-.1-2-.2-1.1-.4-2.3-.5-3.5-.6z"/>
  <path id="Path_36" class="st0" d="M286.1 10.3c0-3.5 0-4.2-.1-4.9-.1-.8-.2-1.2-1-1.3-.3 0-.5-.1-.8-.1-.1 0-.2-.1-.2-.2s.1-.2.4-.2c1.1 0 2.6.1 2.7.1h5.6c.5 0 .9-.1 1.1-.1.1 0 .2-.1.3-.1.1 0 .1.1.1.2 0 .2-.1.4-.2 1.1 0 .2-.1 1.2-.1 1.5 0 .1-.1.2-.2.2s-.2-.1-.2-.3c0-.3 0-.5-.1-.8-.2-.4-.4-.5-1.7-.7-.4-.1-3.1-.1-3.4-.1-.1 0-.1.1-.1.2V11c0 .2 0 .2.1.2.3 0 3.4 0 3.9-.1.6-.1.9-.1 1.2-.3l.3-.3s.1.1.1.2c-.1.4-.1.8-.2 1.3s-.1 1.3-.1 1.5c0 .2-.1.4-.2.4s-.2-.1-.2-.2c0-.3 0-.5-.1-.8-.1-.3-.3-.6-1.2-.7-.6-.1-3.2-.1-3.6-.1-.1 0-.1 0-.2.1V18c.1 1.5.5 1.8 2.8 1.8.8 0 1.6 0 2.4-.2.6-.3 1.1-.9 1.1-1.6.1-.3.1-.3.2-.3s.2.2.2.3c-.1.7-.2 1.5-.3 2.2-.2.6-.4.6-1.3.6-1.8 0-3.1-.1-4.1-.1-1-.1-1.6-.1-2-.1h-1c-.5 0-1 .1-1.4.1-.2 0-.4-.1-.4-.2s.1-.2.2-.2c.2 0 .5-.1.7-.1.5-.1.5-.5.6-1.2.1-1.6.2-3.3.1-4.9v-3.8z"/>
  <path id="Path_37" class="st0" d="M293.2 21.2c-1.5 0-2.6 0-3.5-.1h-.6c-1-.1-1.6-.1-2-.1h-1c-.6 0-1.1.1-1.4.1-.5 0-.6-.2-.6-.4s.2-.4.4-.4c.1 0 .3 0 .4-.1h.3c.3 0 .3-.3.4-1v-.1c.1-1.6.2-3.3.1-4.9v-4c0-3.5 0-4.2-.1-4.9-.1-.8-.2-1-.8-1.1-.3 0-.5 0-.8-.1-.2 0-.4-.2-.4-.4 0-.3.2-.4.6-.4h8.5c.3 0 .7-.1.9-.1H293.9c.1 0 .2-.1.3-.1.1 0 .3.1.3.4 0 .1 0 .2-.1.3-.1.3-.1.5-.1.8v.5c0 .4-.1.9-.1 1 0 .2-.2.4-.4.4-.1 0-.4 0-.4-.5 0-.2 0-.5-.1-.7-.1-.3-.2-.4-1.5-.6-.4 0-2.8-.1-3.3-.1v6.2c.7 0 3.4 0 3.9-.1s.8-.1 1-.3l.1-.1c.1-.2.3-.3.4-.3.2 0 .3.2.3.3v.3c-.1.3-.1.7-.1 1-.1.5-.1 1.3-.1 1.5 0 .4-.2.6-.4.6s-.4-.2-.4-.4 0-.5-.1-.7c0-.2-.1-.5-1-.6-.6-.1-2.9-.1-3.5-.1v5.8c0 1.3.3 1.6 2.6 1.6.8 0 1.5 0 2.3-.2.5-.2.8-.5.9-1.4 0-.2.1-.5.4-.5.1 0 .4.1.4.6-.1.8-.2 1.5-.3 2.3-.4 1.1-.8 1.1-1.7 1.1zm-6-.6c.3 0 1 0 2 .1h.6c.9 0 2.1.1 3.5.1.9 0 1 0 1.1-.4.1-.7.2-1.4.3-2 0 .7-.5 1.4-1.2 1.7-.8.2-1.6.3-2.4.3-2.3 0-3-.3-3-2v-2.9-2.9c0-.2.1-.4.3-.4.3 0 2.9 0 3.6.1.9.1 1.3.3 1.4.9 0 .1.1.2.1.4 0-.3.1-.9.1-1.3s.1-.7.2-1.1l-.1.1c-.4.3-.8.4-1.2.4-.6.1-3.2.1-4 .1-.3 0-.3-.3-.3-.4V4.9c0-.4.2-.4.3-.4.2 0 3 0 3.4.1 1.3.2 1.6.3 1.9.8.1.3.1.6.1.9 0-.1.1-.6.1-1v-.5c0-.3.1-.6.1-.9v-.2c-.1 0-.1 0-.2.1h-.2c-.3.1-.6.1-.9.1h-8 .2c1 .1 1.1.7 1.1 1.5s.1 1.4.1 4.9v4c0 1.7 0 3.3-.1 5v.1c-.1.6-.2 1.2-.8 1.3h-.5c.3 0 .7 0 1.2-.1s1.1 0 1.2 0z"/>
</svg>
